# MagicaVoxel @ Ephtracy

# group
g Mushroom

# material
mtllib Mushroom.mtl
usemtl palette

# normals
vn -1 0 0
vn 1 0 0
vn 0 0 1
vn 0 0 -1
vn 0 -1 0
vn 0 1 0

# texcoords
vt 0.00585938 0.5
vt 0.00976563 0.5
vt 0.306641 0.5

# verts
v -3 3 5
v -3 3 -0
v -3 5 5
v -3 5 -0
v -2 0 4
v -2 0 1
v -2 3 4
v -2 3 1
v -2 5 4
v -2 5 1
v -2 6 4
v -2 6 1
v 1 0 4
v 1 0 1
v 1 3 4
v 1 3 1
v 1 5 4
v 1 5 1
v 1 6 4
v 1 6 1
v 2 3 5
v 2 3 -0
v 2 5 5
v 2 5 -0
v -3 3 5
v -3 5 5
v 2 3 5
v 2 5 5
v -2 0 4
v -2 3 4
v -2 5 4
v -2 6 4
v 1 0 4
v 1 3 4
v 1 5 4
v 1 6 4
v -2 0 1
v -2 3 1
v -2 5 1
v -2 6 1
v 1 0 1
v 1 3 1
v 1 5 1
v 1 6 1
v -3 3 -0
v -3 5 -0
v 2 3 -0
v 2 5 -0
v -2 0 4
v 1 0 4
v -2 0 1
v 1 0 1
v -3 3 5
v 2 3 5
v -2 3 4
v 1 3 4
v -2 3 1
v 1 3 1
v -3 3 -0
v 2 3 -0
v -3 5 5
v 2 5 5
v -2 5 4
v 1 5 4
v -2 5 1
v 1 5 1
v -3 5 -0
v 2 5 -0
v -2 6 4
v 1 6 4
v -2 6 1
v 1 6 1

# faces
f 3/1/1 2/1/1 1/1/1
f 4/1/1 2/1/1 3/1/1
f 7/2/1 6/2/1 5/2/1
f 8/2/1 6/2/1 7/2/1
f 11/1/1 10/1/1 9/1/1
f 12/1/1 10/1/1 11/1/1
f 13/2/2 14/2/2 15/2/2
f 15/2/2 14/2/2 16/2/2
f 17/1/2 18/1/2 19/1/2
f 19/1/2 18/1/2 20/1/2
f 21/1/2 22/1/2 23/1/2
f 23/1/2 22/1/2 24/1/2
f 27/1/3 26/1/3 25/1/3
f 28/1/3 26/1/3 27/1/3
f 33/2/3 30/2/3 29/2/3
f 34/2/3 30/2/3 33/2/3
f 35/1/3 32/1/3 31/1/3
f 36/1/3 32/1/3 35/1/3
f 37/2/4 38/2/4 41/2/4
f 41/2/4 38/2/4 42/2/4
f 39/1/4 40/1/4 43/1/4
f 43/1/4 40/1/4 44/1/4
f 45/1/4 46/1/4 47/1/4
f 47/1/4 46/1/4 48/1/4
f 51/2/5 50/2/5 49/2/5
f 52/2/5 50/2/5 51/2/5
f 55/1/5 54/1/5 53/1/5
f 56/1/5 54/1/5 55/1/5
f 57/1/5 55/1/5 53/1/5
f 58/1/5 54/1/5 56/1/5
f 59/1/5 57/1/5 53/1/5
f 59/1/5 58/1/5 57/1/5
f 60/1/5 54/1/5 58/1/5
f 60/1/5 58/1/5 59/1/5
f 61/1/6 62/1/6 63/1/6
f 63/1/6 62/1/6 64/1/6
f 61/1/6 63/1/6 65/1/6
f 64/1/6 62/1/6 66/1/6
f 61/1/6 65/1/6 67/1/6
f 65/1/6 66/1/6 67/1/6
f 66/1/6 62/1/6 68/1/6
f 67/1/6 66/1/6 68/1/6
f 69/1/6 70/1/6 71/1/6
f 71/1/6 70/1/6 72/1/6
