# MagicaVoxel @ Ephtracy

# group
g Small Square Bush

# material
mtllib Small Square Bush.mtl
usemtl palette

# normals
vn -1 0 0
vn 1 0 0
vn 0 0 1
vn 0 0 -1
vn 0 -1 0
vn 0 1 0

# texcoords
vt 0.740234 0.5
vt 0.744141 0.5

# verts
v -6 0 9
v -6 0 -0
v -6 1 10
v -6 1 9
v -6 1 -0
v -6 1 -1
v -6 3 10
v -6 3 9
v -6 3 8
v -6 3 2
v -6 3 1
v -6 3 -1
v -6 4 9
v -6 4 8
v -6 4 3
v -6 4 2
v -6 4 1
v -6 5 7
v -6 5 6
v -6 5 3
v -6 5 2
v -6 6 10
v -6 6 9
v -6 6 7
v -6 6 6
v -6 6 3
v -6 6 2
v -6 6 -0
v -6 6 -1
v -6 7 3
v -6 7 2
v -6 8 9
v -6 8 -0
v -5 0 10
v -5 0 9
v -5 0 -0
v -5 0 -1
v -5 1 10
v -5 1 9
v -5 1 -0
v -5 1 -1
v -4 6 10
v -4 6 9
v -4 6 -0
v -4 6 -1
v -4 8 10
v -4 8 9
v -4 8 -0
v -4 8 -1
v 4 6 10
v 4 6 9
v 4 6 -0
v 4 6 -1
v 4 8 10
v 4 8 9
v 4 8 -0
v 4 8 -1
v 5 0 10
v 5 0 9
v 5 0 -0
v 5 0 -1
v 5 1 10
v 5 1 9
v 5 1 -0
v 5 1 -1
v 6 0 9
v 6 0 -0
v 6 1 10
v 6 1 9
v 6 1 -0
v 6 1 -1
v 6 3 10
v 6 3 9
v 6 3 8
v 6 3 2
v 6 3 1
v 6 3 -1
v 6 4 9
v 6 4 8
v 6 4 3
v 6 4 2
v 6 4 1
v 6 5 7
v 6 5 6
v 6 5 3
v 6 5 2
v 6 6 10
v 6 6 9
v 6 6 7
v 6 6 6
v 6 6 -0
v 6 6 -1
v 6 8 9
v 6 8 -0
v -6 1 10
v -6 3 10
v -6 6 10
v -5 0 10
v -5 1 10
v -4 3 10
v -4 4 10
v -4 6 10
v -4 8 10
v -3 3 10
v -3 4 10
v -3 5 10
v -2 4 10
v -2 5 10
v -1 3 10
v -1 4 10
v 0 3 10
v 0 4 10
v 2 6 10
v 2 7 10
v 3 6 10
v 3 7 10
v 4 3 10
v 4 4 10
v 4 6 10
v 4 8 10
v 5 0 10
v 5 1 10
v 5 3 10
v 5 4 10
v 6 1 10
v 6 3 10
v 6 6 10
v -6 0 9
v -6 1 9
v -6 6 9
v -6 8 9
v -5 0 9
v -5 1 9
v -4 6 9
v -4 8 9
v 4 6 9
v 4 8 9
v 5 0 9
v 5 1 9
v 6 0 9
v 6 1 9
v 6 6 9
v 6 8 9
v -6 0 -0
v -6 1 -0
v -6 6 -0
v -6 8 -0
v -5 0 -0
v -5 1 -0
v -4 6 -0
v -4 8 -0
v 4 6 -0
v 4 8 -0
v 5 0 -0
v 5 1 -0
v 6 0 -0
v 6 1 -0
v 6 6 -0
v 6 8 -0
v -6 1 -1
v -6 3 -1
v -6 6 -1
v -5 0 -1
v -5 1 -1
v -5 2 -1
v -5 3 -1
v -5 4 -1
v -4 3 -1
v -4 4 -1
v -4 6 -1
v -4 8 -1
v -3 3 -1
v -3 4 -1
v -3 6 -1
v -3 7 -1
v -2 3 -1
v -2 4 -1
v -2 6 -1
v -2 7 -1
v 2 3 -1
v 2 4 -1
v 3 2 -1
v 3 3 -1
v 3 4 -1
v 4 2 -1
v 4 3 -1
v 4 6 -1
v 4 8 -1
v 5 0 -1
v 5 1 -1
v 5 2 -1
v 5 3 -1
v 6 1 -1
v 6 3 -1
v 6 6 -1
v -5 0 10
v 5 0 10
v -6 0 9
v -5 0 9
v -1 0 9
v 1 0 9
v 5 0 9
v 6 0 9
v -4 0 8
v -1 0 8
v 1 0 8
v 4 0 8
v -6 0 -0
v -5 0 -0
v -4 0 -0
v 4 0 -0
v 5 0 -0
v 6 0 -0
v -5 0 -1
v 5 0 -1
v -6 1 10
v -5 1 10
v 5 1 10
v 6 1 10
v -6 1 9
v -5 1 9
v 5 1 9
v 6 1 9
v -6 1 -0
v -5 1 -0
v 5 1 -0
v 6 1 -0
v -6 1 -1
v -5 1 -1
v 5 1 -1
v 6 1 -1
v -6 6 10
v -4 6 10
v 4 6 10
v 6 6 10
v -6 6 9
v -4 6 9
v 4 6 9
v 6 6 9
v -6 6 -0
v -4 6 -0
v 4 6 -0
v 6 6 -0
v -6 6 -1
v -4 6 -1
v 4 6 -1
v 6 6 -1
v -4 8 10
v 4 8 10
v -6 8 9
v -4 8 9
v 4 8 9
v 6 8 9
v -6 8 -0
v -4 8 -0
v 4 8 -0
v 6 8 -0
v -4 8 -1
v 4 8 -1

# faces
f 4/2/1 2/2/1 1/2/1
f 5/2/1 2/2/1 4/2/1
f 7/2/1 4/2/1 3/2/1
f 7/2/1 6/2/1 5/2/1
f 7/2/1 5/2/1 4/2/1
f 8/2/1 6/2/1 7/2/1
f 9/2/1 6/2/1 8/2/1
f 10/2/1 6/2/1 9/2/1
f 11/2/1 6/2/1 10/2/1
f 12/2/1 6/2/1 11/2/1
f 13/1/1 8/1/1 7/1/1
f 13/2/1 9/2/1 8/2/1
f 14/1/1 10/1/1 9/1/1
f 14/2/1 9/2/1 13/2/1
f 15/1/1 10/1/1 14/1/1
f 16/2/1 11/2/1 10/2/1
f 16/1/1 10/1/1 15/1/1
f 17/1/1 12/1/1 11/1/1
f 17/2/1 11/2/1 16/2/1
f 18/1/1 15/1/1 14/1/1
f 18/1/1 14/1/1 13/1/1
f 19/1/1 15/1/1 18/1/1
f 20/2/1 16/2/1 15/2/1
f 20/1/1 15/1/1 19/1/1
f 21/1/1 17/1/1 16/1/1
f 21/2/1 16/2/1 20/2/1
f 22/1/1 13/1/1 7/1/1
f 22/1/1 18/1/1 13/1/1
f 23/1/1 18/1/1 22/1/1
f 24/2/1 19/2/1 18/2/1
f 24/1/1 18/1/1 23/1/1
f 25/1/1 20/1/1 19/1/1
f 25/2/1 19/2/1 24/2/1
f 25/1/1 21/1/1 20/1/1
f 26/1/1 21/1/1 25/1/1
f 27/1/1 17/1/1 21/1/1
f 27/1/1 21/1/1 26/1/1
f 28/1/1 12/1/1 17/1/1
f 28/1/1 17/1/1 27/1/1
f 29/1/1 12/1/1 28/1/1
f 30/1/1 26/1/1 25/1/1
f 30/2/1 27/2/1 26/2/1
f 30/1/1 25/1/1 24/1/1
f 30/1/1 24/1/1 23/1/1
f 31/1/1 28/1/1 27/1/1
f 31/2/1 27/2/1 30/2/1
f 32/1/1 30/1/1 23/1/1
f 32/1/1 31/1/1 30/1/1
f 33/1/1 28/1/1 31/1/1
f 33/1/1 31/1/1 32/1/1
f 38/2/1 35/2/1 34/2/1
f 39/2/1 35/2/1 38/2/1
f 40/2/1 37/2/1 36/2/1
f 41/2/1 37/2/1 40/2/1
f 46/1/1 43/1/1 42/1/1
f 47/1/1 43/1/1 46/1/1
f 48/1/1 45/1/1 44/1/1
f 49/1/1 45/1/1 48/1/1
f 50/1/2 51/1/2 54/1/2
f 54/1/2 51/1/2 55/1/2
f 52/1/2 53/1/2 56/1/2
f 56/1/2 53/1/2 57/1/2
f 58/2/2 59/2/2 62/2/2
f 62/2/2 59/2/2 63/2/2
f 60/2/2 61/2/2 64/2/2
f 64/2/2 61/2/2 65/2/2
f 66/2/2 67/2/2 69/2/2
f 69/2/2 67/2/2 70/2/2
f 68/2/2 69/2/2 72/2/2
f 70/2/2 71/2/2 72/2/2
f 69/2/2 70/2/2 72/2/2
f 72/2/2 71/2/2 73/2/2
f 73/2/2 71/2/2 74/2/2
f 74/2/2 71/2/2 75/2/2
f 75/2/2 71/2/2 76/2/2
f 76/2/2 71/2/2 77/2/2
f 72/1/2 73/1/2 78/1/2
f 73/2/2 74/2/2 78/2/2
f 74/1/2 75/1/2 79/1/2
f 78/2/2 74/2/2 79/2/2
f 79/1/2 75/1/2 80/1/2
f 75/2/2 76/2/2 81/2/2
f 80/1/2 75/1/2 81/1/2
f 76/1/2 77/1/2 82/1/2
f 81/2/2 76/2/2 82/2/2
f 79/1/2 80/1/2 83/1/2
f 78/1/2 79/1/2 83/1/2
f 83/1/2 80/1/2 84/1/2
f 80/2/2 81/2/2 85/2/2
f 84/1/2 80/1/2 85/1/2
f 81/1/2 82/1/2 86/1/2
f 85/2/2 81/2/2 86/2/2
f 72/1/2 78/1/2 87/1/2
f 78/1/2 83/1/2 87/1/2
f 87/1/2 83/1/2 88/1/2
f 83/2/2 84/2/2 89/2/2
f 88/1/2 83/1/2 89/1/2
f 84/1/2 85/1/2 90/1/2
f 89/2/2 84/2/2 90/2/2
f 85/1/2 86/1/2 90/1/2
f 86/1/2 82/1/2 91/1/2
f 90/1/2 86/1/2 91/1/2
f 82/1/2 77/1/2 91/1/2
f 91/1/2 77/1/2 92/1/2
f 89/1/2 90/1/2 93/1/2
f 90/1/2 91/1/2 93/1/2
f 88/1/2 89/1/2 93/1/2
f 93/1/2 91/1/2 94/1/2
f 99/2/3 96/2/3 95/2/3
f 100/1/3 97/1/3 96/1/3
f 100/2/3 99/2/3 98/2/3
f 100/2/3 96/2/3 99/2/3
f 101/1/3 97/1/3 100/1/3
f 102/1/3 97/1/3 101/1/3
f 104/2/3 100/2/3 98/2/3
f 104/2/3 101/2/3 100/2/3
f 105/1/3 103/1/3 102/1/3
f 105/2/3 101/2/3 104/2/3
f 105/1/3 102/1/3 101/1/3
f 106/1/3 103/1/3 105/1/3
f 107/1/3 105/1/3 104/1/3
f 107/2/3 106/2/3 105/2/3
f 108/1/3 103/1/3 106/1/3
f 108/2/3 106/2/3 107/2/3
f 109/2/3 104/2/3 98/2/3
f 109/1/3 107/1/3 104/1/3
f 109/1/3 108/1/3 107/1/3
f 110/1/3 108/1/3 109/1/3
f 111/2/3 109/2/3 98/2/3
f 111/2/3 110/2/3 109/2/3
f 112/1/3 108/1/3 110/1/3
f 112/2/3 110/2/3 111/2/3
f 113/1/3 103/1/3 108/1/3
f 113/1/3 108/1/3 112/1/3
f 113/1/3 112/1/3 111/1/3
f 114/1/3 103/1/3 113/1/3
f 115/1/3 113/1/3 111/1/3
f 115/2/3 114/2/3 113/2/3
f 116/1/3 103/1/3 114/1/3
f 116/2/3 114/2/3 115/2/3
f 117/2/3 111/2/3 98/2/3
f 117/1/3 115/1/3 111/1/3
f 117/1/3 116/1/3 115/1/3
f 118/1/3 116/1/3 117/1/3
f 119/1/3 116/1/3 118/1/3
f 120/1/3 103/1/3 116/1/3
f 120/1/3 116/1/3 119/1/3
f 121/2/3 117/2/3 98/2/3
f 121/2/3 118/2/3 117/2/3
f 122/2/3 118/2/3 121/2/3
f 123/2/3 118/2/3 122/2/3
f 124/1/3 119/1/3 118/1/3
f 124/2/3 118/2/3 123/2/3
f 125/2/3 123/2/3 122/2/3
f 126/1/3 124/1/3 123/1/3
f 126/2/3 123/2/3 125/2/3
f 127/1/3 119/1/3 124/1/3
f 127/1/3 124/1/3 126/1/3
f 132/2/3 129/2/3 128/2/3
f 133/2/3 129/2/3 132/2/3
f 134/1/3 131/1/3 130/1/3
f 135/1/3 131/1/3 134/1/3
f 140/2/3 139/2/3 138/2/3
f 141/2/3 139/2/3 140/2/3
f 142/1/3 137/1/3 136/1/3
f 143/1/3 137/1/3 142/1/3
f 144/2/4 145/2/4 148/2/4
f 148/2/4 145/2/4 149/2/4
f 146/1/4 147/1/4 150/1/4
f 150/1/4 147/1/4 151/1/4
f 154/2/4 155/2/4 156/2/4
f 156/2/4 155/2/4 157/2/4
f 152/1/4 153/1/4 158/1/4
f 158/1/4 153/1/4 159/1/4
f 160/2/4 161/2/4 164/2/4
f 164/2/4 161/2/4 165/2/4
f 161/1/4 162/1/4 166/1/4
f 165/2/4 161/2/4 166/2/4
f 166/1/4 162/1/4 167/1/4
f 165/1/4 166/1/4 168/1/4
f 166/2/4 167/2/4 168/2/4
f 167/1/4 162/1/4 169/1/4
f 168/2/4 167/2/4 169/2/4
f 169/1/4 162/1/4 170/1/4
f 165/1/4 168/1/4 172/1/4
f 170/1/4 171/1/4 172/1/4
f 169/1/4 170/1/4 172/1/4
f 168/1/4 169/1/4 172/1/4
f 172/1/4 171/1/4 173/1/4
f 173/1/4 171/1/4 174/1/4
f 174/1/4 171/1/4 175/1/4
f 165/1/4 172/1/4 176/1/4
f 172/2/4 173/2/4 176/2/4
f 173/1/4 174/1/4 177/1/4
f 176/2/4 173/2/4 177/2/4
f 174/2/4 175/2/4 178/2/4
f 177/1/4 174/1/4 178/1/4
f 175/1/4 171/1/4 179/1/4
f 178/2/4 175/2/4 179/2/4
f 177/1/4 178/1/4 180/1/4
f 176/1/4 177/1/4 180/1/4
f 178/1/4 179/1/4 180/1/4
f 165/1/4 176/1/4 180/1/4
f 180/1/4 179/1/4 181/1/4
f 164/2/4 165/2/4 182/2/4
f 163/2/4 164/2/4 182/2/4
f 165/1/4 180/1/4 182/1/4
f 180/2/4 181/2/4 183/2/4
f 182/1/4 180/1/4 183/1/4
f 181/1/4 179/1/4 184/1/4
f 183/2/4 181/2/4 184/2/4
f 182/2/4 183/2/4 185/2/4
f 163/2/4 182/2/4 185/2/4
f 183/1/4 184/1/4 186/1/4
f 185/2/4 183/2/4 186/2/4
f 184/1/4 179/1/4 187/1/4
f 186/1/4 184/1/4 187/1/4
f 179/1/4 171/1/4 188/1/4
f 187/1/4 179/1/4 188/1/4
f 163/2/4 185/2/4 189/2/4
f 189/2/4 185/2/4 190/2/4
f 185/1/4 186/1/4 191/1/4
f 190/2/4 185/2/4 191/2/4
f 186/1/4 187/1/4 191/1/4
f 191/1/4 187/1/4 192/1/4
f 190/2/4 191/2/4 193/2/4
f 191/2/4 192/2/4 193/2/4
f 192/1/4 187/1/4 194/1/4
f 193/2/4 192/2/4 194/2/4
f 194/1/4 187/1/4 195/1/4
f 199/2/5 197/2/5 196/2/5
f 200/2/5 197/2/5 199/2/5
f 201/2/5 197/2/5 200/2/5
f 202/2/5 197/2/5 201/2/5
f 204/2/5 199/2/5 198/2/5
f 204/2/5 200/2/5 199/2/5
f 205/1/5 201/1/5 200/1/5
f 205/2/5 200/2/5 204/2/5
f 206/2/5 203/2/5 202/2/5
f 206/1/5 201/1/5 205/1/5
f 206/2/5 202/2/5 201/2/5
f 207/2/5 203/2/5 206/2/5
f 208/2/5 204/2/5 198/2/5
f 209/2/5 204/2/5 208/2/5
f 210/1/5 205/1/5 204/1/5
f 210/2/5 204/2/5 209/2/5
f 210/1/5 206/1/5 205/1/5
f 210/1/5 207/1/5 206/1/5
f 211/2/5 203/2/5 207/2/5
f 211/1/5 207/1/5 210/1/5
f 212/2/5 203/2/5 211/2/5
f 213/2/5 203/2/5 212/2/5
f 214/2/5 210/2/5 209/2/5
f 214/2/5 212/2/5 211/2/5
f 214/2/5 211/2/5 210/2/5
f 215/2/5 212/2/5 214/2/5
f 220/2/5 217/2/5 216/2/5
f 221/2/5 217/2/5 220/2/5
f 222/2/5 219/2/5 218/2/5
f 223/2/5 219/2/5 222/2/5
f 228/2/5 225/2/5 224/2/5
f 229/2/5 225/2/5 228/2/5
f 230/2/5 227/2/5 226/2/5
f 231/2/5 227/2/5 230/2/5
f 232/1/6 233/1/6 236/1/6
f 236/1/6 233/1/6 237/1/6
f 234/1/6 235/1/6 238/1/6
f 238/1/6 235/1/6 239/1/6
f 240/1/6 241/1/6 244/1/6
f 244/1/6 241/1/6 245/1/6
f 242/1/6 243/1/6 246/1/6
f 246/1/6 243/1/6 247/1/6
f 248/1/6 249/1/6 251/1/6
f 251/1/6 249/1/6 252/1/6
f 250/1/6 251/1/6 254/1/6
f 252/1/6 253/1/6 254/1/6
f 251/1/6 252/1/6 254/1/6
f 254/1/6 253/1/6 255/1/6
f 255/1/6 253/1/6 256/1/6
f 256/1/6 253/1/6 257/1/6
f 255/1/6 256/1/6 258/1/6
f 258/1/6 256/1/6 259/1/6
