# MagicaVoxel @ Ephtracy

# group
g Wooden Box

# material
mtllib Wooden Box.mtl
usemtl palette

# normals
vn -1 0 0
vn 1 0 0
vn 0 0 1
vn 0 0 -1
vn 0 -1 0
vn 0 1 0

# texcoords
vt 0.314453 0.5
vt 0.318359 0.5
vt 0.373047 0.5

# verts
v -7 0 8
v -7 0 -5
v -7 1 7
v -7 1 -4
v -7 12 7
v -7 12 -4
v -7 13 8
v -7 13 -5
v -6 1 7
v -6 1 -4
v -6 5 7
v -6 5 3
v -6 5 2
v -6 5 -1
v -6 5 -2
v -6 5 -4
v -6 6 3
v -6 6 2
v -6 6 -1
v -6 6 -2
v -6 6 -3
v -6 7 6
v -6 7 5
v -6 7 4
v -6 7 3
v -6 7 -2
v -6 7 -3
v -6 8 6
v -6 8 5
v -6 8 4
v -6 8 3
v -6 9 7
v -6 9 6
v -6 9 -1
v -6 9 -2
v -6 10 -0
v -6 10 -1
v -6 10 -2
v -6 12 7
v -6 12 6
v -6 12 -0
v -6 12 -1
v -6 12 -4
v 6 0 7
v 6 0 -4
v 6 1 8
v 6 1 7
v 6 1 -4
v 6 1 -5
v 6 5 7
v 6 5 -4
v 6 11 7
v 6 12 8
v 6 12 7
v 6 12 6
v 6 12 -4
v 6 12 -5
v 6 13 7
v 6 13 -4
v -6 0 7
v -6 0 -4
v -6 1 8
v -6 1 7
v -6 1 -4
v -6 1 -5
v -6 5 7
v -6 5 -4
v -6 9 7
v -6 12 8
v -6 12 7
v -6 12 6
v -6 12 -0
v -6 12 -1
v -6 12 -4
v -6 12 -5
v -6 13 7
v -6 13 -4
v 6 1 7
v 6 1 -4
v 6 5 7
v 6 5 4
v 6 5 3
v 6 5 -0
v 6 5 -1
v 6 5 -4
v 6 6 4
v 6 6 3
v 6 6 -0
v 6 6 -1
v 6 6 -2
v 6 7 -1
v 6 7 -2
v 6 8 5
v 6 8 4
v 6 9 5
v 6 9 4
v 6 9 -2
v 6 9 -3
v 6 10 1
v 6 10 -0
v 6 10 -2
v 6 10 -3
v 6 11 7
v 6 11 6
v 6 11 1
v 6 11 -0
v 6 12 7
v 6 12 6
v 6 12 -4
v 7 0 8
v 7 0 -5
v 7 1 7
v 7 1 -4
v 7 12 7
v 7 12 -4
v 7 13 8
v 7 13 -5
v -7 0 8
v -7 13 8
v -6 1 8
v -6 12 8
v 6 1 8
v 6 12 8
v 7 0 8
v 7 13 8
v -6 1 7
v -6 5 7
v -6 9 7
v -6 12 7
v -5 4 7
v -5 5 7
v -5 6 7
v -4 5 7
v -4 6 7
v -4 10 7
v -4 12 7
v -3 9 7
v -3 10 7
v -1 4 7
v -1 5 7
v -1 7 7
v -1 8 7
v 0 4 7
v 0 5 7
v 0 7 7
v 0 8 7
v 2 4 7
v 2 5 7
v 3 4 7
v 3 5 7
v 3 6 7
v 3 9 7
v 3 10 7
v 4 4 7
v 4 5 7
v 4 6 7
v 4 9 7
v 4 10 7
v 5 11 7
v 5 12 7
v 6 1 7
v 6 5 7
v 6 11 7
v 6 12 7
v -7 1 -4
v -7 12 -4
v -6 0 -4
v -6 1 -4
v -6 5 -4
v -6 12 -4
v -6 13 -4
v -5 12 -4
v -4 12 -4
v 6 0 -4
v 6 1 -4
v 6 5 -4
v 6 12 -4
v 6 13 -4
v 7 1 -4
v 7 12 -4
v -7 1 7
v -7 12 7
v -6 0 7
v -6 1 7
v -6 5 7
v -6 9 7
v -6 12 7
v -6 13 7
v -4 12 7
v 5 12 7
v 6 0 7
v 6 1 7
v 6 5 7
v 6 11 7
v 6 12 7
v 6 13 7
v 7 1 7
v 7 12 7
v -6 1 -4
v -6 5 -4
v -6 12 -4
v -5 6 -4
v -5 7 -4
v -5 11 -4
v -5 12 -4
v -4 5 -4
v -4 6 -4
v -4 7 -4
v -4 8 -4
v -4 11 -4
v -4 12 -4
v -3 5 -4
v -3 6 -4
v -3 7 -4
v -3 8 -4
v 0 6 -4
v 0 7 -4
v 1 6 -4
v 1 7 -4
v 2 5 -4
v 2 6 -4
v 3 9 -4
v 3 10 -4
v 4 5 -4
v 4 6 -4
v 4 9 -4
v 4 10 -4
v 6 1 -4
v 6 5 -4
v 6 12 -4
v -7 0 -5
v -7 13 -5
v -6 1 -5
v -6 12 -5
v 6 1 -5
v 6 12 -5
v 7 0 -5
v 7 13 -5
v -7 0 8
v 7 0 8
v -6 0 7
v 6 0 7
v -6 0 -4
v 6 0 -4
v -7 0 -5
v 7 0 -5
v -6 1 7
v 6 1 7
v -5 1 6
v 5 1 6
v -5 1 -3
v 5 1 -3
v -6 1 -4
v 6 1 -4
v -6 12 8
v 6 12 8
v -7 12 7
v -6 12 7
v -4 12 7
v 5 12 7
v 6 12 7
v 7 12 7
v -6 12 6
v 6 12 6
v -6 12 -0
v -6 12 -1
v -7 12 -4
v -6 12 -4
v -5 12 -4
v -4 12 -4
v 6 12 -4
v 7 12 -4
v -6 12 -5
v 6 12 -5
v -6 1 8
v 6 1 8
v -7 1 7
v -6 1 7
v 6 1 7
v 7 1 7
v -7 1 -4
v -6 1 -4
v 6 1 -4
v 7 1 -4
v -6 1 -5
v 6 1 -5
v -6 12 7
v -4 12 7
v 5 12 7
v 6 12 7
v -6 12 6
v -4 12 6
v 5 12 6
v 6 12 6
v -1 12 5
v 0 12 5
v 2 12 5
v 3 12 5
v -1 12 4
v 0 12 4
v 2 12 4
v 3 12 4
v -2 12 3
v -1 12 3
v -2 12 2
v -1 12 2
v 3 12 1
v 4 12 1
v -6 12 -0
v -5 12 -0
v 1 12 -0
v 2 12 -0
v 3 12 -0
v 4 12 -0
v -6 12 -1
v -5 12 -1
v 1 12 -1
v 2 12 -1
v 3 12 -1
v 2 12 -2
v 3 12 -2
v 4 12 -2
v -5 12 -3
v -4 12 -3
v 3 12 -3
v 4 12 -3
v -6 12 -4
v -5 12 -4
v -4 12 -4
v 6 12 -4
v -7 13 8
v 7 13 8
v -6 13 7
v 6 13 7
v -6 13 -4
v 6 13 -4
v -7 13 -5
v 7 13 -5

# faces
f 3/3/1 2/3/1 1/3/1
f 4/3/1 2/3/1 3/3/1
f 5/3/1 3/3/1 1/3/1
f 6/3/1 2/3/1 4/3/1
f 7/3/1 5/3/1 1/3/1
f 7/3/1 6/3/1 5/3/1
f 8/3/1 2/3/1 6/3/1
f 8/3/1 6/3/1 7/3/1
f 11/2/1 10/2/1 9/2/1
f 12/2/1 10/2/1 11/2/1
f 13/2/1 10/2/1 12/2/1
f 14/2/1 10/2/1 13/2/1
f 15/2/1 10/2/1 14/2/1
f 16/2/1 10/2/1 15/2/1
f 17/1/1 12/1/1 11/1/1
f 17/2/1 13/2/1 12/2/1
f 18/1/1 14/1/1 13/1/1
f 18/2/1 13/2/1 17/2/1
f 19/2/1 15/2/1 14/2/1
f 19/1/1 14/1/1 18/1/1
f 20/1/1 16/1/1 15/1/1
f 20/2/1 15/2/1 19/2/1
f 21/1/1 16/1/1 20/1/1
f 22/1/1 19/1/1 18/1/1
f 22/1/1 17/1/1 11/1/1
f 22/1/1 18/1/1 17/1/1
f 22/1/1 20/1/1 19/1/1
f 23/1/1 20/1/1 22/1/1
f 24/1/1 20/1/1 23/1/1
f 25/1/1 20/1/1 24/1/1
f 26/2/1 21/2/1 20/2/1
f 26/1/1 20/1/1 25/1/1
f 27/1/1 16/1/1 21/1/1
f 27/2/1 21/2/1 26/2/1
f 28/1/1 22/1/1 11/1/1
f 28/2/1 23/2/1 22/2/1
f 29/1/1 24/1/1 23/1/1
f 29/2/1 23/2/1 28/2/1
f 30/2/1 25/2/1 24/2/1
f 30/1/1 24/1/1 29/1/1
f 31/1/1 26/1/1 25/1/1
f 31/2/1 25/2/1 30/2/1
f 31/1/1 27/1/1 26/1/1
f 32/1/1 30/1/1 29/1/1
f 32/1/1 29/1/1 28/1/1
f 32/1/1 31/1/1 30/1/1
f 32/1/1 28/1/1 11/1/1
f 33/1/1 31/1/1 32/1/1
f 34/1/1 27/1/1 31/1/1
f 34/1/1 31/1/1 33/1/1
f 35/1/1 27/1/1 34/1/1
f 36/1/1 34/1/1 33/1/1
f 37/2/1 35/2/1 34/2/1
f 37/1/1 34/1/1 36/1/1
f 38/1/1 27/1/1 35/1/1
f 38/2/1 35/2/1 37/2/1
f 39/2/1 33/2/1 32/2/1
f 40/1/1 36/1/1 33/1/1
f 40/2/1 33/2/1 39/2/1
f 41/2/1 37/2/1 36/2/1
f 41/1/1 36/1/1 40/1/1
f 42/1/1 38/1/1 37/1/1
f 42/2/1 37/2/1 41/2/1
f 43/1/1 27/1/1 38/1/1
f 43/1/1 38/1/1 42/1/1
f 43/1/1 16/1/1 27/1/1
f 47/3/1 45/3/1 44/3/1
f 48/3/1 45/3/1 47/3/1
f 50/3/1 47/3/1 46/3/1
f 51/3/1 49/3/1 48/3/1
f 52/3/1 50/3/1 46/3/1
f 53/3/1 52/3/1 46/3/1
f 54/3/1 52/3/1 53/3/1
f 56/3/1 49/3/1 51/3/1
f 57/3/1 49/3/1 56/3/1
f 58/3/1 55/3/1 54/3/1
f 58/3/1 56/3/1 55/3/1
f 59/3/1 56/3/1 58/3/1
f 60/3/2 61/3/2 63/3/2
f 63/3/2 61/3/2 64/3/2
f 62/3/2 63/3/2 66/3/2
f 64/3/2 65/3/2 67/3/2
f 62/3/2 66/3/2 68/3/2
f 62/3/2 68/3/2 69/3/2
f 69/3/2 68/3/2 70/3/2
f 67/3/2 65/3/2 74/3/2
f 74/3/2 65/3/2 75/3/2
f 72/3/2 73/3/2 76/3/2
f 73/3/2 74/3/2 76/3/2
f 70/3/2 71/3/2 76/3/2
f 71/3/2 72/3/2 76/3/2
f 76/3/2 74/3/2 77/3/2
f 78/2/2 79/2/2 80/2/2
f 80/2/2 79/2/2 81/2/2
f 81/2/2 79/2/2 82/2/2
f 82/2/2 79/2/2 83/2/2
f 83/2/2 79/2/2 84/2/2
f 84/2/2 79/2/2 85/2/2
f 80/1/2 81/1/2 86/1/2
f 81/2/2 82/2/2 86/2/2
f 82/1/2 83/1/2 87/1/2
f 86/2/2 82/2/2 87/2/2
f 83/2/2 84/2/2 88/2/2
f 87/1/2 83/1/2 88/1/2
f 84/1/2 85/1/2 89/1/2
f 88/2/2 84/2/2 89/2/2
f 89/1/2 85/1/2 90/1/2
f 87/1/2 88/1/2 91/1/2
f 86/1/2 87/1/2 91/1/2
f 89/2/2 90/2/2 91/2/2
f 88/1/2 89/1/2 91/1/2
f 90/1/2 85/1/2 92/1/2
f 91/2/2 90/2/2 92/2/2
f 86/1/2 91/1/2 93/1/2
f 80/1/2 86/1/2 93/1/2
f 91/1/2 92/1/2 93/1/2
f 93/1/2 92/1/2 94/1/2
f 80/1/2 93/1/2 95/1/2
f 93/2/2 94/2/2 95/2/2
f 94/1/2 92/1/2 96/1/2
f 95/2/2 94/2/2 96/2/2
f 92/1/2 85/1/2 97/1/2
f 96/1/2 92/1/2 97/1/2
f 97/1/2 85/1/2 98/1/2
f 95/1/2 96/1/2 99/1/2
f 96/1/2 97/1/2 99/1/2
f 99/1/2 97/1/2 100/1/2
f 97/2/2 98/2/2 101/2/2
f 100/1/2 97/1/2 101/1/2
f 98/1/2 85/1/2 102/1/2
f 101/2/2 98/2/2 102/2/2
f 80/1/2 95/1/2 103/1/2
f 95/1/2 99/1/2 103/1/2
f 103/1/2 99/1/2 104/1/2
f 99/2/2 100/2/2 105/2/2
f 104/1/2 99/1/2 105/1/2
f 100/1/2 101/1/2 106/1/2
f 105/2/2 100/2/2 106/2/2
f 101/1/2 102/1/2 106/1/2
f 103/2/2 104/2/2 107/2/2
f 104/1/2 105/1/2 108/1/2
f 107/2/2 104/2/2 108/2/2
f 105/1/2 106/1/2 108/1/2
f 102/1/2 85/1/2 109/1/2
f 108/1/2 106/1/2 109/1/2
f 106/1/2 102/1/2 109/1/2
f 110/3/2 111/3/2 112/3/2
f 112/3/2 111/3/2 113/3/2
f 110/3/2 112/3/2 114/3/2
f 113/3/2 111/3/2 115/3/2
f 110/3/2 114/3/2 116/3/2
f 114/3/2 115/3/2 116/3/2
f 115/3/2 111/3/2 117/3/2
f 116/3/2 115/3/2 117/3/2
f 120/3/3 119/3/3 118/3/3
f 121/3/3 119/3/3 120/3/3
f 122/3/3 120/3/3 118/3/3
f 123/3/3 119/3/3 121/3/3
f 124/3/3 122/3/3 118/3/3
f 124/3/3 123/3/3 122/3/3
f 125/3/3 119/3/3 123/3/3
f 125/3/3 123/3/3 124/3/3
f 130/2/3 127/2/3 126/2/3
f 131/1/3 128/1/3 127/1/3
f 131/2/3 127/2/3 130/2/3
f 132/1/3 128/1/3 131/1/3
f 133/1/3 131/1/3 130/1/3
f 133/2/3 132/2/3 131/2/3
f 134/1/3 128/1/3 132/1/3
f 134/2/3 132/2/3 133/2/3
f 135/2/3 129/2/3 128/2/3
f 136/2/3 129/2/3 135/2/3
f 137/1/3 128/1/3 134/1/3
f 137/1/3 134/1/3 133/1/3
f 137/2/3 135/2/3 128/2/3
f 138/1/3 136/1/3 135/1/3
f 138/2/3 135/2/3 137/2/3
f 139/2/3 130/2/3 126/2/3
f 139/1/3 133/1/3 130/1/3
f 139/1/3 138/1/3 137/1/3
f 139/1/3 137/1/3 133/1/3
f 140/1/3 138/1/3 139/1/3
f 141/1/3 138/1/3 140/1/3
f 142/1/3 138/1/3 141/1/3
f 143/2/3 139/2/3 126/2/3
f 143/2/3 140/2/3 139/2/3
f 144/1/3 141/1/3 140/1/3
f 144/2/3 140/2/3 143/2/3
f 145/2/3 142/2/3 141/2/3
f 145/1/3 141/1/3 144/1/3
f 146/1/3 138/1/3 142/1/3
f 146/2/3 142/2/3 145/2/3
f 147/1/3 145/1/3 144/1/3
f 147/1/3 144/1/3 143/1/3
f 147/1/3 146/1/3 145/1/3
f 147/2/3 143/2/3 126/2/3
f 148/1/3 146/1/3 147/1/3
f 149/2/3 147/2/3 126/2/3
f 149/2/3 148/2/3 147/2/3
f 150/1/3 146/1/3 148/1/3
f 150/2/3 148/2/3 149/2/3
f 151/1/3 146/1/3 150/1/3
f 152/1/3 138/1/3 146/1/3
f 152/1/3 146/1/3 151/1/3
f 153/1/3 136/1/3 138/1/3
f 153/1/3 138/1/3 152/1/3
f 154/2/3 149/2/3 126/2/3
f 154/1/3 150/1/3 149/1/3
f 155/2/3 151/2/3 150/2/3
f 155/1/3 150/1/3 154/1/3
f 156/1/3 152/1/3 151/1/3
f 156/2/3 151/2/3 155/2/3
f 157/2/3 153/2/3 152/2/3
f 157/1/3 152/1/3 156/1/3
f 158/1/3 136/1/3 153/1/3
f 158/2/3 153/2/3 157/2/3
f 159/1/3 157/1/3 156/1/3
f 159/1/3 136/1/3 158/1/3
f 159/1/3 158/1/3 157/1/3
f 159/1/3 156/1/3 155/1/3
f 160/1/3 136/1/3 159/1/3
f 161/2/3 155/2/3 154/2/3
f 161/2/3 154/2/3 126/2/3
f 162/1/3 159/1/3 155/1/3
f 162/2/3 155/2/3 161/2/3
f 163/2/3 160/2/3 159/2/3
f 163/1/3 159/1/3 162/1/3
f 164/2/3 160/2/3 163/2/3
f 168/3/3 166/3/3 165/3/3
f 169/3/3 166/3/3 168/3/3
f 170/3/3 166/3/3 169/3/3
f 172/3/3 171/3/3 170/3/3
f 173/3/3 171/3/3 172/3/3
f 174/3/3 168/3/3 167/3/3
f 175/3/3 168/3/3 174/3/3
f 177/3/3 171/3/3 173/3/3
f 178/3/3 171/3/3 177/3/3
f 179/3/3 176/3/3 175/3/3
f 179/3/3 177/3/3 176/3/3
f 180/3/3 177/3/3 179/3/3
f 181/3/4 182/3/4 184/3/4
f 184/3/4 182/3/4 185/3/4
f 185/3/4 182/3/4 186/3/4
f 186/3/4 182/3/4 187/3/4
f 187/3/4 188/3/4 189/3/4
f 189/3/4 188/3/4 190/3/4
f 183/3/4 184/3/4 191/3/4
f 191/3/4 184/3/4 192/3/4
f 190/3/4 188/3/4 195/3/4
f 195/3/4 188/3/4 196/3/4
f 193/3/4 194/3/4 197/3/4
f 194/3/4 195/3/4 197/3/4
f 192/3/4 193/3/4 197/3/4
f 197/3/4 195/3/4 198/3/4
f 200/1/4 201/1/4 202/1/4
f 202/1/4 201/1/4 203/1/4
f 203/1/4 201/1/4 204/1/4
f 204/1/4 201/1/4 205/1/4
f 199/2/4 200/2/4 206/2/4
f 200/1/4 202/1/4 206/1/4
f 202/2/4 203/2/4 207/2/4
f 206/1/4 202/1/4 207/1/4
f 203/1/4 204/1/4 208/1/4
f 207/2/4 203/2/4 208/2/4
f 208/1/4 204/1/4 209/1/4
f 204/2/4 205/2/4 210/2/4
f 209/1/4 204/1/4 210/1/4
f 210/2/4 205/2/4 211/2/4
f 199/2/4 206/2/4 212/2/4
f 206/2/4 207/2/4 212/2/4
f 207/1/4 208/1/4 213/1/4
f 212/2/4 207/2/4 213/2/4
f 208/2/4 209/2/4 214/2/4
f 213/1/4 208/1/4 214/1/4
f 210/1/4 211/1/4 215/1/4
f 214/2/4 209/2/4 215/2/4
f 209/1/4 210/1/4 215/1/4
f 212/1/4 213/1/4 216/1/4
f 213/1/4 214/1/4 216/1/4
f 214/1/4 215/1/4 216/1/4
f 216/1/4 215/1/4 217/1/4
f 212/1/4 216/1/4 218/1/4
f 216/2/4 217/2/4 218/2/4
f 217/1/4 215/1/4 219/1/4
f 218/2/4 217/2/4 219/2/4
f 199/2/4 212/2/4 220/2/4
f 212/1/4 218/1/4 220/1/4
f 218/1/4 219/1/4 220/1/4
f 220/1/4 219/1/4 221/1/4
f 215/1/4 211/1/4 222/1/4
f 221/1/4 219/1/4 222/1/4
f 219/1/4 215/1/4 222/1/4
f 222/1/4 211/1/4 223/1/4
f 220/2/4 221/2/4 224/2/4
f 199/2/4 220/2/4 224/2/4
f 221/1/4 222/1/4 225/1/4
f 224/2/4 221/2/4 225/2/4
f 222/2/4 223/2/4 226/2/4
f 225/1/4 222/1/4 226/1/4
f 223/1/4 211/1/4 227/1/4
f 226/2/4 223/2/4 227/2/4
f 199/2/4 224/2/4 228/2/4
f 225/1/4 226/1/4 229/1/4
f 228/2/4 224/2/4 229/2/4
f 224/1/4 225/1/4 229/1/4
f 226/1/4 227/1/4 229/1/4
f 227/1/4 211/1/4 230/1/4
f 229/1/4 227/1/4 230/1/4
f 231/3/4 232/3/4 233/3/4
f 233/3/4 232/3/4 234/3/4
f 231/3/4 233/3/4 235/3/4
f 234/3/4 232/3/4 236/3/4
f 231/3/4 235/3/4 237/3/4
f 235/3/4 236/3/4 237/3/4
f 236/3/4 232/3/4 238/3/4
f 237/3/4 236/3/4 238/3/4
f 241/3/5 240/3/5 239/3/5
f 242/3/5 240/3/5 241/3/5
f 243/3/5 241/3/5 239/3/5
f 244/3/5 240/3/5 242/3/5
f 245/3/5 243/3/5 239/3/5
f 245/3/5 244/3/5 243/3/5
f 246/3/5 240/3/5 244/3/5
f 246/3/5 244/3/5 245/3/5
f 249/2/5 248/2/5 247/2/5
f 250/2/5 248/2/5 249/2/5
f 251/2/5 249/2/5 247/2/5
f 251/1/5 250/1/5 249/1/5
f 252/2/5 248/2/5 250/2/5
f 252/1/5 250/1/5 251/1/5
f 253/2/5 251/2/5 247/2/5
f 253/2/5 252/2/5 251/2/5
f 254/2/5 248/2/5 252/2/5
f 254/2/5 252/2/5 253/2/5
f 258/3/5 256/3/5 255/3/5
f 259/3/5 256/3/5 258/3/5
f 260/3/5 256/3/5 259/3/5
f 261/3/5 256/3/5 260/3/5
f 263/3/5 258/3/5 257/3/5
f 264/3/5 262/3/5 261/3/5
f 265/3/5 263/3/5 257/3/5
f 266/3/5 265/3/5 257/3/5
f 267/3/5 266/3/5 257/3/5
f 268/3/5 266/3/5 267/3/5
f 271/3/5 262/3/5 264/3/5
f 272/3/5 262/3/5 271/3/5
f 273/3/5 270/3/5 269/3/5
f 273/3/5 271/3/5 270/3/5
f 273/3/5 269/3/5 268/3/5
f 274/3/5 271/3/5 273/3/5
f 275/3/6 276/3/6 278/3/6
f 278/3/6 276/3/6 279/3/6
f 277/3/6 278/3/6 281/3/6
f 281/3/6 278/3/6 282/3/6
f 279/3/6 280/3/6 283/3/6
f 283/3/6 280/3/6 284/3/6
f 282/3/6 283/3/6 285/3/6
f 285/3/6 283/3/6 286/3/6
f 287/2/6 288/2/6 291/2/6
f 288/1/6 289/1/6 292/1/6
f 291/2/6 288/2/6 292/2/6
f 289/2/6 290/2/6 293/2/6
f 292/1/6 289/1/6 293/1/6
f 293/2/6 290/2/6 294/2/6
f 291/1/6 292/1/6 295/1/6
f 292/1/6 293/1/6 295/1/6
f 293/1/6 294/1/6 295/1/6
f 295/1/6 294/1/6 296/1/6
f 296/1/6 294/1/6 297/1/6
f 297/1/6 294/1/6 298/1/6
f 291/1/6 295/1/6 299/1/6
f 295/2/6 296/2/6 299/2/6
f 296/1/6 297/1/6 300/1/6
f 299/2/6 296/2/6 300/2/6
f 297/2/6 298/2/6 301/2/6
f 300/1/6 297/1/6 301/1/6
f 298/1/6 294/1/6 302/1/6
f 301/2/6 298/2/6 302/2/6
f 300/1/6 301/1/6 303/1/6
f 299/1/6 300/1/6 303/1/6
f 301/1/6 302/1/6 303/1/6
f 291/1/6 299/1/6 303/1/6
f 303/1/6 302/1/6 304/1/6
f 291/1/6 303/1/6 305/1/6
f 303/2/6 304/2/6 305/2/6
f 304/1/6 302/1/6 306/1/6
f 305/2/6 304/2/6 306/2/6
f 302/1/6 294/1/6 307/1/6
f 306/1/6 302/1/6 307/1/6
f 305/1/6 306/1/6 307/1/6
f 307/1/6 294/1/6 308/1/6
f 291/1/6 305/1/6 309/1/6
f 305/1/6 307/1/6 309/1/6
f 309/1/6 307/1/6 310/1/6
f 310/1/6 307/1/6 311/1/6
f 311/1/6 307/1/6 312/1/6
f 307/2/6 308/2/6 313/2/6
f 312/1/6 307/1/6 313/1/6
f 308/1/6 294/1/6 314/1/6
f 313/2/6 308/2/6 314/2/6
f 309/2/6 310/2/6 315/2/6
f 310/1/6 311/1/6 316/1/6
f 315/2/6 310/2/6 316/2/6
f 311/2/6 312/2/6 317/2/6
f 316/1/6 311/1/6 317/1/6
f 312/1/6 313/1/6 318/1/6
f 317/2/6 312/2/6 318/2/6
f 313/1/6 314/1/6 318/1/6
f 318/1/6 314/1/6 319/1/6
f 316/1/6 317/1/6 320/1/6
f 315/1/6 316/1/6 320/1/6
f 318/2/6 319/2/6 320/2/6
f 317/1/6 318/1/6 320/1/6
f 319/1/6 314/1/6 321/1/6
f 320/2/6 319/2/6 321/2/6
f 314/1/6 294/1/6 322/1/6
f 321/1/6 314/1/6 322/1/6
f 315/1/6 320/1/6 323/1/6
f 320/1/6 321/1/6 323/1/6
f 323/1/6 321/1/6 324/1/6
f 321/2/6 322/2/6 325/2/6
f 324/1/6 321/1/6 325/1/6
f 322/1/6 294/1/6 326/1/6
f 325/2/6 322/2/6 326/2/6
f 315/1/6 323/1/6 327/1/6
f 323/2/6 324/2/6 328/2/6
f 327/1/6 323/1/6 328/1/6
f 324/1/6 325/1/6 329/1/6
f 328/2/6 324/2/6 329/2/6
f 325/1/6 326/1/6 329/1/6
f 326/1/6 294/1/6 330/1/6
f 329/1/6 326/1/6 330/1/6
f 331/3/6 332/3/6 333/3/6
f 333/3/6 332/3/6 334/3/6
f 331/3/6 333/3/6 335/3/6
f 334/3/6 332/3/6 336/3/6
f 331/3/6 335/3/6 337/3/6
f 335/3/6 336/3/6 337/3/6
f 336/3/6 332/3/6 338/3/6
f 337/3/6 336/3/6 338/3/6
