# MagicaVoxel @ Ephtracy

# group
g Barn

# material
mtllib Barn.mtl
usemtl palette

# normals
vn -1 0 0
vn 1 0 0
vn 0 0 1
vn 0 0 -1
vn 0 -1 0
vn 0 1 0

# texcoords
vt 0.111328 0.5
vt 0.138672 0.5
vt 0.857422 0.5
vt 0.927734 0.5
vt 0.962891 0.5
vt 0.982422 0.5
vt 0.986328 0.5
vt 0.990234 0.5

# verts
v -14 16 15
v -14 16 -18
v -14 17 15
v -14 17 -18
v -13 2 15
v -13 2 -17
v -13 3 15
v -13 3 14
v -13 3 13
v -13 3 -16
v -13 15 15
v -13 15 14
v -13 15 13
v -13 15 -16
v -13 16 16
v -13 16 15
v -13 16 -17
v -13 17 16
v -13 17 15
v -12 3 13
v -12 3 -16
v -12 5 7
v -12 5 1
v -12 5 -4
v -12 5 -10
v -12 6 6
v -12 6 2
v -12 6 -5
v -12 6 -9
v -12 8 6
v -12 8 2
v -12 8 -5
v -12 8 -9
v -12 9 6
v -12 9 2
v -12 9 -5
v -12 9 -9
v -12 12 6
v -12 12 2
v -12 12 -5
v -12 12 -9
v -12 13 7
v -12 13 1
v -12 13 -4
v -12 13 -10
v -12 15 13
v -12 15 -16
v -12 17 15
v -12 17 -18
v -12 18 15
v -12 18 -18
v -11 6 6
v -11 6 2
v -11 6 -5
v -11 6 -9
v -11 8 6
v -11 8 2
v -11 8 -5
v -11 8 -9
v -11 9 6
v -11 9 2
v -11 9 -5
v -11 9 -9
v -11 12 6
v -11 12 2
v -11 12 -5
v -11 12 -9
v -11 18 15
v -11 18 -18
v -11 19 15
v -11 19 -18
v -10 19 15
v -10 19 -18
v -10 20 15
v -10 20 -18
v -9 20 15
v -9 20 -18
v -9 22 15
v -9 22 -18
v -7 3 -16
v -7 3 -17
v -7 9 -17
v -7 9 -18
v -7 10 -16
v -7 10 -18
v -7 22 13
v -7 22 -18
v -7 23 13
v -7 23 -18
v -6 12 -16
v -6 12 -17
v -6 13 -16
v -6 13 -17
v -3 23 13
v -3 23 -17
v -3 24 13
v -3 24 12
v -3 25 12
v -3 25 -17
v -2 25 12
v -2 25 -16
v -2 26 12
v -2 26 -16
v -1 3 -16
v -1 3 -17
v -1 8 -16
v -1 8 -17
v -1 26 12
v -1 26 11
v -1 26 -14
v -1 26 -15
v -1 28 12
v -1 28 11
v -1 30 -14
v -1 30 -15
v 4 21 -16
v 4 21 -18
v 4 22 -16
v 4 22 -18
v 6 3 -16
v 6 3 -17
v 6 8 -16
v 6 8 -17
v 6 20 -16
v 6 20 -18
v 6 21 -16
v 6 21 -18
v 8 19 -16
v 8 19 -18
v 8 20 -16
v 8 20 -18
v 9 18 -16
v 9 18 -18
v 9 19 -16
v 9 19 -18
v 10 17 -16
v 10 17 -18
v 10 18 -16
v 10 18 -18
v 11 16 -16
v 11 16 -17
v 11 16 -18
v 11 17 -16
v 11 17 -18
v 12 3 -16
v 12 3 -17
v 12 15 -16
v 12 15 -17
v -12 3 -16
v -12 3 -17
v -12 15 -16
v -12 15 -17
v -11 16 -16
v -11 16 -17
v -11 16 -18
v -11 17 -16
v -11 17 -18
v -10 17 -16
v -10 17 -18
v -10 18 -16
v -10 18 -18
v -9 18 -16
v -9 18 -18
v -9 19 -16
v -9 19 -18
v -8 19 -16
v -8 19 -18
v -8 20 -16
v -8 20 -18
v -6 3 -16
v -6 3 -17
v -6 8 -16
v -6 8 -17
v -6 20 -16
v -6 20 -18
v -6 21 -16
v -6 21 -18
v -4 21 -16
v -4 21 -18
v -4 22 -16
v -4 22 -18
v 1 3 -16
v 1 3 -17
v 1 8 -16
v 1 8 -17
v 1 26 12
v 1 26 11
v 1 26 -14
v 1 26 -15
v 1 28 12
v 1 28 11
v 1 30 -14
v 1 30 -15
v 2 25 12
v 2 25 -16
v 2 26 12
v 2 26 -16
v 3 23 13
v 3 23 -17
v 3 24 13
v 3 24 12
v 3 25 12
v 3 25 -17
v 6 12 -16
v 6 12 -17
v 6 13 -16
v 6 13 -17
v 7 3 -16
v 7 3 -17
v 7 9 -17
v 7 9 -18
v 7 10 -16
v 7 10 -18
v 7 22 13
v 7 22 -18
v 7 23 13
v 7 23 -18
v 9 20 15
v 9 20 -18
v 9 22 15
v 9 22 -18
v 10 19 15
v 10 19 -18
v 10 20 15
v 10 20 -18
v 11 6 6
v 11 6 2
v 11 6 -5
v 11 6 -9
v 11 8 6
v 11 8 2
v 11 8 -5
v 11 8 -9
v 11 9 6
v 11 9 2
v 11 9 -5
v 11 9 -9
v 11 12 6
v 11 12 2
v 11 12 -5
v 11 12 -9
v 11 18 15
v 11 18 -18
v 11 19 15
v 11 19 -18
v 12 3 13
v 12 3 -16
v 12 5 7
v 12 5 1
v 12 5 -4
v 12 5 -10
v 12 6 6
v 12 6 2
v 12 6 -5
v 12 6 -9
v 12 8 6
v 12 8 2
v 12 8 -5
v 12 8 -9
v 12 9 6
v 12 9 2
v 12 9 -5
v 12 9 -9
v 12 12 6
v 12 12 2
v 12 12 -5
v 12 12 -9
v 12 13 7
v 12 13 1
v 12 13 -4
v 12 13 -10
v 12 15 13
v 12 15 -16
v 12 17 15
v 12 17 -18
v 12 18 15
v 12 18 -18
v 13 2 15
v 13 2 -17
v 13 3 15
v 13 3 14
v 13 3 13
v 13 3 -16
v 13 15 15
v 13 15 14
v 13 15 13
v 13 15 -16
v 13 16 16
v 13 16 15
v 13 16 -17
v 13 17 16
v 13 17 15
v 14 16 15
v 14 16 -18
v 14 17 15
v 14 17 -18
v -13 16 16
v -13 17 16
v 13 16 16
v 13 17 16
v -14 16 15
v -14 17 15
v -13 2 15
v -13 3 15
v -13 15 15
v -13 16 15
v -13 17 15
v -12 17 15
v -12 18 15
v -11 18 15
v -11 19 15
v -10 19 15
v -10 20 15
v -9 20 15
v -9 22 15
v 9 20 15
v 9 22 15
v 10 19 15
v 10 20 15
v 11 18 15
v 11 19 15
v 12 17 15
v 12 18 15
v 13 2 15
v 13 3 15
v 13 15 15
v 13 16 15
v 13 17 15
v 14 16 15
v 14 17 15
v -13 3 14
v -13 15 14
v -12 3 14
v -12 15 14
v 12 3 14
v 12 15 14
v 13 3 14
v 13 15 14
v -7 22 13
v -7 23 13
v -3 23 13
v -3 24 13
v 3 23 13
v 3 24 13
v 7 22 13
v 7 23 13
v -3 24 12
v -3 25 12
v -2 25 12
v -2 26 12
v -1 26 12
v -1 28 12
v 1 26 12
v 1 28 12
v 2 25 12
v 2 26 12
v 3 24 12
v 3 25 12
v -12 6 2
v -12 8 2
v -12 9 2
v -12 12 2
v -11 6 2
v -11 8 2
v -11 9 2
v -11 12 2
v 11 6 2
v 11 8 2
v 11 9 2
v 11 12 2
v 12 6 2
v 12 8 2
v 12 9 2
v 12 12 2
v -12 6 -9
v -12 8 -9
v -12 9 -9
v -12 12 -9
v -11 6 -9
v -11 8 -9
v -11 9 -9
v -11 12 -9
v 11 6 -9
v 11 8 -9
v 11 9 -9
v 11 12 -9
v 12 6 -9
v 12 8 -9
v 12 9 -9
v 12 12 -9
v -1 26 -14
v -1 30 -14
v 1 26 -14
v 1 30 -14
v -13 3 -16
v -13 15 -16
v -12 3 -16
v -12 15 -16
v 12 3 -16
v 12 15 -16
v 13 3 -16
v 13 15 -16
v -13 3 13
v -13 15 13
v -12 3 13
v -12 15 13
v 12 3 13
v 12 15 13
v 13 3 13
v 13 15 13
v -1 26 11
v -1 28 11
v 1 26 11
v 1 28 11
v -12 6 6
v -12 8 6
v -12 9 6
v -12 12 6
v -11 6 6
v -11 8 6
v -11 9 6
v -11 12 6
v 11 6 6
v 11 8 6
v 11 9 6
v 11 12 6
v 12 6 6
v 12 8 6
v 12 9 6
v 12 12 6
v -12 6 -5
v -12 8 -5
v -12 9 -5
v -12 12 -5
v -11 6 -5
v -11 8 -5
v -11 9 -5
v -11 12 -5
v 11 6 -5
v 11 8 -5
v 11 9 -5
v 11 12 -5
v 12 6 -5
v 12 8 -5
v 12 9 -5
v 12 12 -5
v -1 26 -15
v -1 30 -15
v 1 26 -15
v 1 30 -15
v -12 3 -16
v -12 15 -16
v -11 16 -16
v -11 17 -16
v -10 17 -16
v -10 18 -16
v -9 18 -16
v -9 19 -16
v -8 19 -16
v -8 20 -16
v -7 3 -16
v -7 10 -16
v -6 3 -16
v -6 8 -16
v -6 12 -16
v -6 13 -16
v -6 20 -16
v -6 21 -16
v -4 21 -16
v -4 22 -16
v -2 25 -16
v -2 26 -16
v -1 3 -16
v -1 8 -16
v 1 3 -16
v 1 8 -16
v 2 25 -16
v 2 26 -16
v 4 21 -16
v 4 22 -16
v 6 3 -16
v 6 8 -16
v 6 12 -16
v 6 13 -16
v 6 20 -16
v 6 21 -16
v 7 3 -16
v 7 10 -16
v 8 19 -16
v 8 20 -16
v 9 18 -16
v 9 19 -16
v 10 17 -16
v 10 18 -16
v 11 16 -16
v 11 17 -16
v 12 3 -16
v 12 15 -16
v -13 2 -17
v -13 16 -17
v -12 3 -17
v -12 15 -17
v -11 16 -17
v -7 3 -17
v -7 9 -17
v -6 3 -17
v -6 8 -17
v -6 12 -17
v -6 13 -17
v -3 23 -17
v -3 25 -17
v -1 3 -17
v -1 8 -17
v 1 3 -17
v 1 8 -17
v 3 23 -17
v 3 25 -17
v 6 3 -17
v 6 8 -17
v 6 12 -17
v 6 13 -17
v 7 3 -17
v 7 9 -17
v 11 16 -17
v 12 3 -17
v 12 15 -17
v 13 2 -17
v 13 16 -17
v -14 16 -18
v -14 17 -18
v -12 17 -18
v -12 18 -18
v -11 16 -18
v -11 17 -18
v -11 18 -18
v -11 19 -18
v -10 17 -18
v -10 18 -18
v -10 19 -18
v -10 20 -18
v -9 18 -18
v -9 19 -18
v -9 20 -18
v -9 22 -18
v -8 19 -18
v -8 20 -18
v -7 9 -18
v -7 10 -18
v -7 22 -18
v -7 23 -18
v -6 20 -18
v -6 21 -18
v -4 21 -18
v -4 22 -18
v 4 21 -18
v 4 22 -18
v 6 20 -18
v 6 21 -18
v 7 9 -18
v 7 10 -18
v 7 22 -18
v 7 23 -18
v 8 19 -18
v 8 20 -18
v 9 18 -18
v 9 19 -18
v 9 20 -18
v 9 22 -18
v 10 17 -18
v 10 18 -18
v 10 19 -18
v 10 20 -18
v 11 16 -18
v 11 17 -18
v 11 18 -18
v 11 19 -18
v 12 17 -18
v 12 18 -18
v 14 16 -18
v 14 17 -18
v -13 2 15
v 13 2 15
v -12 2 14
v 12 2 14
v -12 2 -16
v 12 2 -16
v -13 2 -17
v 13 2 -17
v -12 8 6
v -11 8 6
v 11 8 6
v 12 8 6
v -12 8 2
v -11 8 2
v 11 8 2
v 12 8 2
v -12 8 -5
v -11 8 -5
v 11 8 -5
v 12 8 -5
v -12 8 -9
v -11 8 -9
v 11 8 -9
v 12 8 -9
v -6 8 -16
v -1 8 -16
v 1 8 -16
v 6 8 -16
v -6 8 -17
v -1 8 -17
v 1 8 -17
v 6 8 -17
v -7 9 -17
v 7 9 -17
v -7 9 -18
v 7 9 -18
v -12 12 6
v -11 12 6
v 11 12 6
v 12 12 6
v -12 12 2
v -11 12 2
v 11 12 2
v 12 12 2
v -12 12 -5
v -11 12 -5
v 11 12 -5
v 12 12 -5
v -12 12 -9
v -11 12 -9
v 11 12 -9
v 12 12 -9
v -6 12 -16
v 6 12 -16
v -6 12 -17
v 6 12 -17
v -13 15 15
v 13 15 15
v -13 15 14
v -12 15 14
v 12 15 14
v 13 15 14
v -13 15 13
v -12 15 13
v 12 15 13
v 13 15 13
v -13 15 -16
v -12 15 -16
v 12 15 -16
v 13 15 -16
v -12 15 -17
v 12 15 -17
v -13 16 16
v 13 16 16
v -14 16 15
v -13 16 15
v 13 16 15
v 14 16 15
v -13 16 -17
v -11 16 -17
v 11 16 -17
v 13 16 -17
v -14 16 -18
v -11 16 -18
v 11 16 -18
v 14 16 -18
v -11 17 -16
v -10 17 -16
v 10 17 -16
v 11 17 -16
v -11 17 -18
v -10 17 -18
v 10 17 -18
v 11 17 -18
v -10 18 -16
v -9 18 -16
v 9 18 -16
v 10 18 -16
v -10 18 -18
v -9 18 -18
v 9 18 -18
v 10 18 -18
v -9 19 -16
v -8 19 -16
v 8 19 -16
v 9 19 -16
v -9 19 -18
v -8 19 -18
v 8 19 -18
v 9 19 -18
v -8 20 -16
v -6 20 -16
v 6 20 -16
v 8 20 -16
v -8 20 -18
v -6 20 -18
v 6 20 -18
v 8 20 -18
v -6 21 -16
v -4 21 -16
v 4 21 -16
v 6 21 -16
v -6 21 -18
v -4 21 -18
v 4 21 -18
v 6 21 -18
v -4 22 -16
v 4 22 -16
v -4 22 -18
v 4 22 -18
v -13 3 15
v 13 3 15
v -13 3 14
v -12 3 14
v 12 3 14
v 13 3 14
v -13 3 13
v -12 3 13
v 12 3 13
v 13 3 13
v -13 3 -16
v -12 3 -16
v -7 3 -16
v -6 3 -16
v -1 3 -16
v 1 3 -16
v 6 3 -16
v 7 3 -16
v 12 3 -16
v 13 3 -16
v -12 3 -17
v -7 3 -17
v -6 3 -17
v -1 3 -17
v 1 3 -17
v 6 3 -17
v 7 3 -17
v 12 3 -17
v -12 6 6
v -11 6 6
v 11 6 6
v 12 6 6
v -12 6 2
v -11 6 2
v 11 6 2
v 12 6 2
v -12 6 -5
v -11 6 -5
v 11 6 -5
v 12 6 -5
v -12 6 -9
v -11 6 -9
v 11 6 -9
v 12 6 -9
v -12 9 6
v -11 9 6
v 11 9 6
v 12 9 6
v -12 9 2
v -11 9 2
v 11 9 2
v 12 9 2
v -12 9 -5
v -11 9 -5
v 11 9 -5
v 12 9 -5
v -12 9 -9
v -11 9 -9
v 11 9 -9
v 12 9 -9
v -7 10 -16
v 7 10 -16
v -7 10 -18
v 7 10 -18
v -6 13 -16
v 6 13 -16
v -6 13 -17
v 6 13 -17
v -11 16 -16
v 11 16 -16
v -11 16 -17
v 11 16 -17
v -13 17 16
v 13 17 16
v -14 17 15
v -13 17 15
v -12 17 15
v 12 17 15
v 13 17 15
v 14 17 15
v -14 17 -18
v -12 17 -18
v 12 17 -18
v 14 17 -18
v -12 18 15
v -11 18 15
v 11 18 15
v 12 18 15
v -12 18 -18
v -11 18 -18
v 11 18 -18
v 12 18 -18
v -11 19 15
v -10 19 15
v 10 19 15
v 11 19 15
v -11 19 -18
v -10 19 -18
v 10 19 -18
v 11 19 -18
v -10 20 15
v -9 20 15
v 9 20 15
v 10 20 15
v -10 20 -18
v -9 20 -18
v 9 20 -18
v 10 20 -18
v -9 22 15
v 9 22 15
v -7 22 13
v 7 22 13
v -9 22 -18
v -7 22 -18
v 7 22 -18
v 9 22 -18
v -7 23 13
v -3 23 13
v 3 23 13
v 7 23 13
v -3 23 -17
v 3 23 -17
v -7 23 -18
v 7 23 -18
v -3 24 13
v 3 24 13
v -3 24 12
v 3 24 12
v -3 25 12
v -2 25 12
v 2 25 12
v 3 25 12
v -2 25 -16
v 2 25 -16
v -3 25 -17
v 3 25 -17
v -2 26 12
v -1 26 12
v 1 26 12
v 2 26 12
v -1 26 11
v 1 26 11
v -1 26 -14
v 1 26 -14
v -1 26 -15
v 1 26 -15
v -2 26 -16
v 2 26 -16
v -1 28 12
v 1 28 12
v -1 28 11
v 1 28 11
v -1 30 -14
v 1 30 -14
v -1 30 -15
v 1 30 -15

# faces
f 3/7/1 2/7/1 1/7/1
f 4/7/1 2/7/1 3/7/1
f 7/5/1 6/5/1 5/5/1
f 8/5/1 6/5/1 7/5/1
f 9/5/1 6/5/1 8/5/1
f 10/5/1 6/5/1 9/5/1
f 12/5/1 9/5/1 8/5/1
f 13/5/1 9/5/1 12/5/1
f 14/5/1 6/5/1 10/5/1
f 16/5/1 13/5/1 12/5/1
f 16/5/1 14/5/1 13/5/1
f 16/5/1 12/5/1 11/5/1
f 17/5/1 6/5/1 14/5/1
f 17/5/1 14/5/1 16/5/1
f 18/7/1 16/7/1 15/7/1
f 19/7/1 16/7/1 18/7/1
f 22/2/1 21/2/1 20/2/1
f 23/2/1 21/2/1 22/2/1
f 24/2/1 21/2/1 23/2/1
f 25/2/1 21/2/1 24/2/1
f 26/5/1 23/5/1 22/5/1
f 27/5/1 23/5/1 26/5/1
f 28/5/1 25/5/1 24/5/1
f 29/5/1 25/5/1 28/5/1
f 30/5/1 26/5/1 22/5/1
f 31/5/1 23/5/1 27/5/1
f 32/5/1 28/5/1 24/5/1
f 33/5/1 25/5/1 29/5/1
f 34/5/1 30/5/1 22/5/1
f 34/5/1 31/5/1 30/5/1
f 35/5/1 23/5/1 31/5/1
f 35/5/1 31/5/1 34/5/1
f 36/5/1 33/5/1 32/5/1
f 36/5/1 32/5/1 24/5/1
f 37/5/1 25/5/1 33/5/1
f 37/5/1 33/5/1 36/5/1
f 38/5/1 34/5/1 22/5/1
f 39/5/1 23/5/1 35/5/1
f 40/5/1 36/5/1 24/5/1
f 41/5/1 25/5/1 37/5/1
f 42/2/1 22/2/1 20/2/1
f 42/5/1 38/5/1 22/5/1
f 42/5/1 39/5/1 38/5/1
f 43/2/1 24/2/1 23/2/1
f 43/5/1 39/5/1 42/5/1
f 43/5/1 23/5/1 39/5/1
f 44/5/1 41/5/1 40/5/1
f 44/2/1 24/2/1 43/2/1
f 44/5/1 40/5/1 24/5/1
f 45/2/1 21/2/1 25/2/1
f 45/5/1 41/5/1 44/5/1
f 45/5/1 25/5/1 41/5/1
f 46/2/1 43/2/1 42/2/1
f 46/2/1 44/2/1 43/2/1
f 46/2/1 45/2/1 44/2/1
f 46/2/1 42/2/1 20/2/1
f 47/2/1 21/2/1 45/2/1
f 47/2/1 45/2/1 46/2/1
f 50/7/1 49/7/1 48/7/1
f 51/7/1 49/7/1 50/7/1
f 56/4/1 53/4/1 52/4/1
f 57/4/1 53/4/1 56/4/1
f 58/4/1 55/4/1 54/4/1
f 59/4/1 55/4/1 58/4/1
f 64/4/1 61/4/1 60/4/1
f 65/4/1 61/4/1 64/4/1
f 66/4/1 63/4/1 62/4/1
f 67/4/1 63/4/1 66/4/1
f 70/7/1 69/7/1 68/7/1
f 71/7/1 69/7/1 70/7/1
f 74/7/1 73/7/1 72/7/1
f 75/7/1 73/7/1 74/7/1
f 78/7/1 77/7/1 76/7/1
f 79/7/1 77/7/1 78/7/1
f 82/5/1 81/5/1 80/5/1
f 84/5/1 82/5/1 80/5/1
f 84/5/1 83/5/1 82/5/1
f 85/5/1 83/5/1 84/5/1
f 88/7/1 87/7/1 86/7/1
f 89/7/1 87/7/1 88/7/1
f 92/5/1 91/5/1 90/5/1
f 93/5/1 91/5/1 92/5/1
f 96/8/1 95/8/1 94/8/1
f 97/8/1 95/8/1 96/8/1
f 98/8/1 95/8/1 97/8/1
f 99/8/1 95/8/1 98/8/1
f 102/8/1 101/8/1 100/8/1
f 103/8/1 101/8/1 102/8/1
f 106/5/1 105/5/1 104/5/1
f 107/5/1 105/5/1 106/5/1
f 112/6/1 109/6/1 108/6/1
f 113/6/1 109/6/1 112/6/1
f 114/6/1 111/6/1 110/6/1
f 115/6/1 111/6/1 114/6/1
f 118/7/1 117/7/1 116/7/1
f 119/7/1 117/7/1 118/7/1
f 122/5/1 121/5/1 120/5/1
f 123/5/1 121/5/1 122/5/1
f 126/7/1 125/7/1 124/7/1
f 127/7/1 125/7/1 126/7/1
f 130/7/1 129/7/1 128/7/1
f 131/7/1 129/7/1 130/7/1
f 134/7/1 133/7/1 132/7/1
f 135/7/1 133/7/1 134/7/1
f 138/7/1 137/7/1 136/7/1
f 139/7/1 137/7/1 138/7/1
f 143/7/1 141/7/1 140/7/1
f 143/7/1 142/7/1 141/7/1
f 144/7/1 142/7/1 143/7/1
f 147/5/1 146/5/1 145/5/1
f 148/5/1 146/5/1 147/5/1
f 149/5/2 150/5/2 151/5/2
f 151/5/2 150/5/2 152/5/2
f 153/7/2 154/7/2 156/7/2
f 154/7/2 155/7/2 156/7/2
f 156/7/2 155/7/2 157/7/2
f 158/7/2 159/7/2 160/7/2
f 160/7/2 159/7/2 161/7/2
f 162/7/2 163/7/2 164/7/2
f 164/7/2 163/7/2 165/7/2
f 166/7/2 167/7/2 168/7/2
f 168/7/2 167/7/2 169/7/2
f 170/5/2 171/5/2 172/5/2
f 172/5/2 171/5/2 173/5/2
f 174/7/2 175/7/2 176/7/2
f 176/7/2 175/7/2 177/7/2
f 178/7/2 179/7/2 180/7/2
f 180/7/2 179/7/2 181/7/2
f 182/5/2 183/5/2 184/5/2
f 184/5/2 183/5/2 185/5/2
f 186/6/2 187/6/2 190/6/2
f 190/6/2 187/6/2 191/6/2
f 188/6/2 189/6/2 192/6/2
f 192/6/2 189/6/2 193/6/2
f 194/8/2 195/8/2 196/8/2
f 196/8/2 195/8/2 197/8/2
f 198/8/2 199/8/2 200/8/2
f 200/8/2 199/8/2 201/8/2
f 201/8/2 199/8/2 202/8/2
f 202/8/2 199/8/2 203/8/2
f 204/5/2 205/5/2 206/5/2
f 206/5/2 205/5/2 207/5/2
f 208/5/2 209/5/2 210/5/2
f 208/5/2 210/5/2 212/5/2
f 210/5/2 211/5/2 212/5/2
f 212/5/2 211/5/2 213/5/2
f 214/7/2 215/7/2 216/7/2
f 216/7/2 215/7/2 217/7/2
f 218/7/2 219/7/2 220/7/2
f 220/7/2 219/7/2 221/7/2
f 222/7/2 223/7/2 224/7/2
f 224/7/2 223/7/2 225/7/2
f 226/4/2 227/4/2 230/4/2
f 230/4/2 227/4/2 231/4/2
f 228/4/2 229/4/2 232/4/2
f 232/4/2 229/4/2 233/4/2
f 234/4/2 235/4/2 238/4/2
f 238/4/2 235/4/2 239/4/2
f 236/4/2 237/4/2 240/4/2
f 240/4/2 237/4/2 241/4/2
f 242/7/2 243/7/2 244/7/2
f 244/7/2 243/7/2 245/7/2
f 246/2/2 247/2/2 248/2/2
f 248/2/2 247/2/2 249/2/2
f 249/2/2 247/2/2 250/2/2
f 250/2/2 247/2/2 251/2/2
f 248/5/2 249/5/2 252/5/2
f 252/5/2 249/5/2 253/5/2
f 250/5/2 251/5/2 254/5/2
f 254/5/2 251/5/2 255/5/2
f 248/5/2 252/5/2 256/5/2
f 253/5/2 249/5/2 257/5/2
f 250/5/2 254/5/2 258/5/2
f 255/5/2 251/5/2 259/5/2
f 248/5/2 256/5/2 260/5/2
f 256/5/2 257/5/2 260/5/2
f 257/5/2 249/5/2 261/5/2
f 260/5/2 257/5/2 261/5/2
f 258/5/2 259/5/2 262/5/2
f 250/5/2 258/5/2 262/5/2
f 259/5/2 251/5/2 263/5/2
f 262/5/2 259/5/2 263/5/2
f 248/5/2 260/5/2 264/5/2
f 261/5/2 249/5/2 265/5/2
f 250/5/2 262/5/2 266/5/2
f 263/5/2 251/5/2 267/5/2
f 246/2/2 248/2/2 268/2/2
f 248/5/2 264/5/2 268/5/2
f 264/5/2 265/5/2 268/5/2
f 249/2/2 250/2/2 269/2/2
f 268/5/2 265/5/2 269/5/2
f 265/5/2 249/5/2 269/5/2
f 266/5/2 267/5/2 270/5/2
f 269/2/2 250/2/2 270/2/2
f 250/5/2 266/5/2 270/5/2
f 251/2/2 247/2/2 271/2/2
f 270/5/2 267/5/2 271/5/2
f 267/5/2 251/5/2 271/5/2
f 268/2/2 269/2/2 272/2/2
f 269/2/2 270/2/2 272/2/2
f 270/2/2 271/2/2 272/2/2
f 246/2/2 268/2/2 272/2/2
f 271/2/2 247/2/2 273/2/2
f 272/2/2 271/2/2 273/2/2
f 274/7/2 275/7/2 276/7/2
f 276/7/2 275/7/2 277/7/2
f 278/5/2 279/5/2 280/5/2
f 280/5/2 279/5/2 281/5/2
f 281/5/2 279/5/2 282/5/2
f 282/5/2 279/5/2 283/5/2
f 281/5/2 282/5/2 285/5/2
f 285/5/2 282/5/2 286/5/2
f 283/5/2 279/5/2 287/5/2
f 285/5/2 286/5/2 289/5/2
f 286/5/2 287/5/2 289/5/2
f 284/5/2 285/5/2 289/5/2
f 287/5/2 279/5/2 290/5/2
f 289/5/2 287/5/2 290/5/2
f 288/7/2 289/7/2 291/7/2
f 291/7/2 289/7/2 292/7/2
f 293/7/2 294/7/2 295/7/2
f 295/7/2 294/7/2 296/7/2
f 299/7/3 298/7/3 297/7/3
f 300/7/3 298/7/3 299/7/3
f 306/7/3 302/7/3 301/7/3
f 307/7/3 302/7/3 306/7/3
f 310/7/3 309/7/3 308/7/3
f 312/7/3 311/7/3 310/7/3
f 314/7/3 313/7/3 312/7/3
f 316/7/3 314/7/3 312/7/3
f 316/7/3 315/7/3 314/7/3
f 317/7/3 315/7/3 316/7/3
f 318/7/3 312/7/3 310/7/3
f 318/7/3 316/7/3 312/7/3
f 319/7/3 316/7/3 318/7/3
f 320/7/3 310/7/3 308/7/3
f 320/7/3 318/7/3 310/7/3
f 321/7/3 318/7/3 320/7/3
f 322/7/3 320/7/3 308/7/3
f 323/7/3 320/7/3 322/7/3
f 324/5/3 304/5/3 303/5/3
f 325/5/3 304/5/3 324/5/3
f 326/5/3 306/5/3 305/5/3
f 327/5/3 306/5/3 326/5/3
f 329/7/3 328/7/3 327/7/3
f 330/7/3 328/7/3 329/7/3
f 333/5/3 332/5/3 331/5/3
f 334/5/3 332/5/3 333/5/3
f 335/2/3 334/2/3 333/2/3
f 336/2/3 334/2/3 335/2/3
f 337/5/3 336/5/3 335/5/3
f 338/5/3 336/5/3 337/5/3
f 341/7/3 340/7/3 339/7/3
f 343/7/3 341/7/3 339/7/3
f 343/8/3 342/8/3 341/8/3
f 344/8/3 342/8/3 343/8/3
f 345/7/3 343/7/3 339/7/3
f 346/7/3 343/7/3 345/7/3
f 349/8/3 348/8/3 347/8/3
f 351/8/3 350/8/3 349/8/3
f 353/8/3 351/8/3 349/8/3
f 353/6/3 352/6/3 351/6/3
f 354/6/3 352/6/3 353/6/3
f 355/8/3 349/8/3 347/8/3
f 355/8/3 353/8/3 349/8/3
f 356/8/3 353/8/3 355/8/3
f 357/8/3 355/8/3 347/8/3
f 358/8/3 355/8/3 357/8/3
f 363/5/3 360/5/3 359/5/3
f 364/5/3 360/5/3 363/5/3
f 365/5/3 362/5/3 361/5/3
f 366/5/3 362/5/3 365/5/3
f 371/5/3 368/5/3 367/5/3
f 372/5/3 368/5/3 371/5/3
f 373/5/3 370/5/3 369/5/3
f 374/5/3 370/5/3 373/5/3
f 379/5/3 376/5/3 375/5/3
f 380/5/3 376/5/3 379/5/3
f 381/5/3 378/5/3 377/5/3
f 382/5/3 378/5/3 381/5/3
f 387/5/3 384/5/3 383/5/3
f 388/5/3 384/5/3 387/5/3
f 389/5/3 386/5/3 385/5/3
f 390/5/3 386/5/3 389/5/3
f 393/6/3 392/6/3 391/6/3
f 394/6/3 392/6/3 393/6/3
f 397/5/3 396/5/3 395/5/3
f 398/5/3 396/5/3 397/5/3
f 401/5/3 400/5/3 399/5/3
f 402/5/3 400/5/3 401/5/3
f 403/5/4 404/5/4 405/5/4
f 405/5/4 404/5/4 406/5/4
f 407/5/4 408/5/4 409/5/4
f 409/5/4 408/5/4 410/5/4
f 411/6/4 412/6/4 413/6/4
f 413/6/4 412/6/4 414/6/4
f 415/5/4 416/5/4 419/5/4
f 419/5/4 416/5/4 420/5/4
f 417/5/4 418/5/4 421/5/4
f 421/5/4 418/5/4 422/5/4
f 423/5/4 424/5/4 427/5/4
f 427/5/4 424/5/4 428/5/4
f 425/5/4 426/5/4 429/5/4
f 429/5/4 426/5/4 430/5/4
f 431/5/4 432/5/4 435/5/4
f 435/5/4 432/5/4 436/5/4
f 433/5/4 434/5/4 437/5/4
f 437/5/4 434/5/4 438/5/4
f 439/5/4 440/5/4 443/5/4
f 443/5/4 440/5/4 444/5/4
f 441/5/4 442/5/4 445/5/4
f 445/5/4 442/5/4 446/5/4
f 447/6/4 448/6/4 449/6/4
f 449/6/4 448/6/4 450/6/4
f 453/2/4 454/2/4 455/2/4
f 455/2/4 456/2/4 457/2/4
f 457/2/4 458/2/4 459/2/4
f 451/2/4 452/2/4 461/2/4
f 461/2/4 452/2/4 462/2/4
f 462/2/4 452/2/4 465/2/4
f 465/2/4 452/2/4 466/2/4
f 459/2/4 460/2/4 467/2/4
f 467/2/4 468/2/4 469/2/4
f 463/3/4 464/3/4 473/3/4
f 473/3/4 464/3/4 474/3/4
f 471/8/4 472/8/4 477/8/4
f 477/8/4 472/8/4 478/8/4
f 467/2/4 469/2/4 479/2/4
f 469/2/4 470/2/4 479/2/4
f 479/2/4 470/2/4 480/2/4
f 475/3/4 476/3/4 481/3/4
f 481/3/4 476/3/4 482/3/4
f 462/2/4 465/2/4 483/2/4
f 466/2/4 452/2/4 484/2/4
f 459/2/4 467/2/4 485/2/4
f 467/2/4 479/2/4 485/2/4
f 485/2/4 479/2/4 486/2/4
f 462/2/4 483/2/4 488/2/4
f 483/2/4 484/2/4 488/2/4
f 459/2/4 485/2/4 489/2/4
f 457/2/4 459/2/4 489/2/4
f 489/2/4 485/2/4 490/2/4
f 455/2/4 457/2/4 491/2/4
f 457/2/4 489/2/4 491/2/4
f 491/2/4 489/2/4 492/2/4
f 453/2/4 455/2/4 493/2/4
f 455/2/4 491/2/4 493/2/4
f 493/2/4 491/2/4 494/2/4
f 453/2/4 493/2/4 495/2/4
f 495/2/4 493/2/4 496/2/4
f 487/2/4 488/2/4 497/2/4
f 488/2/4 484/2/4 498/2/4
f 497/2/4 488/2/4 498/2/4
f 484/2/4 452/2/4 498/2/4
f 499/5/4 500/5/4 501/5/4
f 501/5/4 500/5/4 502/5/4
f 502/5/4 500/5/4 503/5/4
f 499/5/4 501/5/4 504/5/4
f 499/5/4 504/5/4 506/5/4
f 504/5/4 505/5/4 506/5/4
f 506/5/4 505/5/4 507/5/4
f 499/5/4 506/5/4 512/5/4
f 507/5/4 505/5/4 513/5/4
f 499/5/4 512/5/4 514/5/4
f 512/5/4 513/5/4 514/5/4
f 513/5/4 505/5/4 515/5/4
f 514/5/4 513/5/4 515/5/4
f 510/8/4 511/8/4 516/8/4
f 516/8/4 511/8/4 517/8/4
f 499/5/4 514/5/4 518/5/4
f 515/5/4 505/5/4 519/5/4
f 508/5/4 509/5/4 520/5/4
f 520/5/4 509/5/4 521/5/4
f 518/5/4 519/5/4 522/5/4
f 499/5/4 518/5/4 522/5/4
f 519/5/4 505/5/4 523/5/4
f 522/5/4 519/5/4 523/5/4
f 502/5/4 503/5/4 524/5/4
f 499/5/4 522/5/4 525/5/4
f 502/5/4 524/5/4 526/5/4
f 499/5/4 525/5/4 527/5/4
f 525/5/4 526/5/4 527/5/4
f 526/5/4 524/5/4 528/5/4
f 527/5/4 526/5/4 528/5/4
f 529/7/4 530/7/4 531/7/4
f 529/7/4 531/7/4 533/7/4
f 531/7/4 532/7/4 533/7/4
f 533/7/4 532/7/4 534/7/4
f 534/7/4 532/7/4 535/7/4
f 535/7/4 536/7/4 537/7/4
f 534/7/4 535/7/4 537/7/4
f 537/7/4 536/7/4 538/7/4
f 538/7/4 536/7/4 539/7/4
f 539/7/4 540/7/4 541/7/4
f 538/7/4 539/7/4 541/7/4
f 541/7/4 540/7/4 542/7/4
f 542/7/4 540/7/4 543/7/4
f 543/7/4 544/7/4 545/7/4
f 542/7/4 543/7/4 545/7/4
f 545/7/4 544/7/4 546/7/4
f 546/7/4 544/7/4 549/7/4
f 546/7/4 549/7/4 551/7/4
f 549/7/4 550/7/4 551/7/4
f 551/7/4 550/7/4 552/7/4
f 552/7/4 550/7/4 553/7/4
f 553/7/4 550/7/4 554/7/4
f 554/7/4 550/7/4 556/7/4
f 555/7/4 556/7/4 558/7/4
f 547/5/4 548/5/4 559/5/4
f 559/5/4 548/5/4 560/5/4
f 557/7/4 558/7/4 561/7/4
f 556/7/4 550/7/4 561/7/4
f 558/7/4 556/7/4 561/7/4
f 561/7/4 550/7/4 562/7/4
f 557/7/4 561/7/4 564/7/4
f 563/7/4 564/7/4 566/7/4
f 564/7/4 561/7/4 567/7/4
f 566/7/4 564/7/4 567/7/4
f 567/7/4 561/7/4 568/7/4
f 565/7/4 566/7/4 570/7/4
f 566/7/4 567/7/4 570/7/4
f 570/7/4 567/7/4 571/7/4
f 571/7/4 567/7/4 572/7/4
f 569/7/4 570/7/4 574/7/4
f 570/7/4 571/7/4 574/7/4
f 574/7/4 571/7/4 575/7/4
f 575/7/4 571/7/4 576/7/4
f 573/7/4 574/7/4 577/7/4
f 574/7/4 575/7/4 577/7/4
f 577/7/4 575/7/4 578/7/4
f 573/7/4 577/7/4 579/7/4
f 579/7/4 577/7/4 580/7/4
f 583/5/5 582/5/5 581/5/5
f 584/5/5 582/5/5 583/5/5
f 585/5/5 583/5/5 581/5/5
f 585/1/5 584/1/5 583/1/5
f 586/5/5 582/5/5 584/5/5
f 586/1/5 584/1/5 585/1/5
f 587/5/5 585/5/5 581/5/5
f 587/5/5 586/5/5 585/5/5
f 588/5/5 582/5/5 586/5/5
f 588/5/5 586/5/5 587/5/5
f 593/5/5 590/5/5 589/5/5
f 594/5/5 590/5/5 593/5/5
f 595/5/5 592/5/5 591/5/5
f 596/5/5 592/5/5 595/5/5
f 601/5/5 598/5/5 597/5/5
f 602/5/5 598/5/5 601/5/5
f 603/5/5 600/5/5 599/5/5
f 604/5/5 600/5/5 603/5/5
f 609/5/5 606/5/5 605/5/5
f 610/5/5 606/5/5 609/5/5
f 611/5/5 608/5/5 607/5/5
f 612/5/5 608/5/5 611/5/5
f 615/5/5 614/5/5 613/5/5
f 616/5/5 614/5/5 615/5/5
f 621/5/5 618/5/5 617/5/5
f 622/5/5 618/5/5 621/5/5
f 623/5/5 620/5/5 619/5/5
f 624/5/5 620/5/5 623/5/5
f 629/5/5 626/5/5 625/5/5
f 630/5/5 626/5/5 629/5/5
f 631/5/5 628/5/5 627/5/5
f 632/5/5 628/5/5 631/5/5
f 635/5/5 634/5/5 633/5/5
f 636/5/5 634/5/5 635/5/5
f 639/5/5 638/5/5 637/5/5
f 640/5/5 638/5/5 639/5/5
f 641/5/5 638/5/5 640/5/5
f 642/5/5 638/5/5 641/5/5
f 647/5/5 644/5/5 643/5/5
f 648/5/5 644/5/5 647/5/5
f 649/5/5 646/5/5 645/5/5
f 650/5/5 646/5/5 649/5/5
f 651/5/5 649/5/5 648/5/5
f 652/5/5 649/5/5 651/5/5
f 656/7/5 654/7/5 653/7/5
f 657/7/5 654/7/5 656/7/5
f 659/7/5 656/7/5 655/7/5
f 662/7/5 658/7/5 657/7/5
f 663/7/5 660/7/5 659/7/5
f 663/7/5 659/7/5 655/7/5
f 664/7/5 660/7/5 663/7/5
f 665/7/5 662/7/5 661/7/5
f 666/7/5 658/7/5 662/7/5
f 666/7/5 662/7/5 665/7/5
f 671/7/5 668/7/5 667/7/5
f 672/7/5 668/7/5 671/7/5
f 673/7/5 670/7/5 669/7/5
f 674/7/5 670/7/5 673/7/5
f 679/7/5 676/7/5 675/7/5
f 680/7/5 676/7/5 679/7/5
f 681/7/5 678/7/5 677/7/5
f 682/7/5 678/7/5 681/7/5
f 687/7/5 684/7/5 683/7/5
f 688/7/5 684/7/5 687/7/5
f 689/7/5 686/7/5 685/7/5
f 690/7/5 686/7/5 689/7/5
f 695/7/5 692/7/5 691/7/5
f 696/7/5 692/7/5 695/7/5
f 697/7/5 694/7/5 693/7/5
f 698/7/5 694/7/5 697/7/5
f 703/7/5 700/7/5 699/7/5
f 704/7/5 700/7/5 703/7/5
f 705/7/5 702/7/5 701/7/5
f 706/7/5 702/7/5 705/7/5
f 709/7/5 708/7/5 707/7/5
f 710/7/5 708/7/5 709/7/5
f 711/5/6 712/5/6 713/5/6
f 713/5/6 712/5/6 714/5/6
f 714/5/6 712/5/6 715/5/6
f 715/5/6 712/5/6 716/5/6
f 717/5/6 718/5/6 721/5/6
f 721/5/6 718/5/6 722/5/6
f 719/5/6 720/5/6 729/5/6
f 729/5/6 720/5/6 730/5/6
f 722/5/6 723/5/6 731/5/6
f 731/5/6 723/5/6 732/5/6
f 724/5/6 725/5/6 733/5/6
f 733/5/6 725/5/6 734/5/6
f 726/5/6 727/5/6 735/5/6
f 735/5/6 727/5/6 736/5/6
f 728/5/6 729/5/6 737/5/6
f 737/5/6 729/5/6 738/5/6
f 739/5/6 740/5/6 743/5/6
f 743/5/6 740/5/6 744/5/6
f 741/5/6 742/5/6 745/5/6
f 745/5/6 742/5/6 746/5/6
f 747/5/6 748/5/6 751/5/6
f 751/5/6 748/5/6 752/5/6
f 749/5/6 750/5/6 753/5/6
f 753/5/6 750/5/6 754/5/6
f 755/5/6 756/5/6 759/5/6
f 759/5/6 756/5/6 760/5/6
f 757/5/6 758/5/6 761/5/6
f 761/5/6 758/5/6 762/5/6
f 763/5/6 764/5/6 767/5/6
f 767/5/6 764/5/6 768/5/6
f 765/5/6 766/5/6 769/5/6
f 769/5/6 766/5/6 770/5/6
f 771/5/6 772/5/6 773/5/6
f 773/5/6 772/5/6 774/5/6
f 775/5/6 776/5/6 777/5/6
f 777/5/6 776/5/6 778/5/6
f 779/5/6 780/5/6 781/5/6
f 781/5/6 780/5/6 782/5/6
f 783/7/6 784/7/6 786/7/6
f 786/7/6 784/7/6 787/7/6
f 787/7/6 784/7/6 788/7/6
f 788/7/6 784/7/6 789/7/6
f 785/7/6 786/7/6 791/7/6
f 786/7/6 787/7/6 791/7/6
f 791/7/6 787/7/6 792/7/6
f 789/7/6 790/7/6 793/7/6
f 788/7/6 789/7/6 793/7/6
f 793/7/6 790/7/6 794/7/6
f 795/7/6 796/7/6 799/7/6
f 799/7/6 796/7/6 800/7/6
f 797/7/6 798/7/6 801/7/6
f 801/7/6 798/7/6 802/7/6
f 803/7/6 804/7/6 807/7/6
f 807/7/6 804/7/6 808/7/6
f 805/7/6 806/7/6 809/7/6
f 809/7/6 806/7/6 810/7/6
f 811/7/6 812/7/6 815/7/6
f 815/7/6 812/7/6 816/7/6
f 813/7/6 814/7/6 817/7/6
f 817/7/6 814/7/6 818/7/6
f 819/7/6 820/7/6 821/7/6
f 821/7/6 820/7/6 822/7/6
f 819/7/6 821/7/6 823/7/6
f 823/7/6 821/7/6 824/7/6
f 822/7/6 820/7/6 825/7/6
f 825/7/6 820/7/6 826/7/6
f 827/7/6 828/7/6 831/7/6
f 829/7/6 830/7/6 832/7/6
f 827/7/6 831/7/6 833/7/6
f 831/7/6 832/7/6 833/7/6
f 832/7/6 830/7/6 834/7/6
f 833/7/6 832/7/6 834/7/6
f 835/8/6 836/8/6 837/8/6
f 837/8/6 836/8/6 838/8/6
f 839/8/6 840/8/6 843/8/6
f 841/8/6 842/8/6 844/8/6
f 839/8/6 843/8/6 845/8/6
f 843/8/6 844/8/6 845/8/6
f 844/8/6 842/8/6 846/8/6
f 845/8/6 844/8/6 846/8/6
f 847/8/6 848/8/6 851/8/6
f 849/8/6 850/8/6 852/8/6
f 847/8/6 851/8/6 853/8/6
f 851/8/6 852/8/6 853/8/6
f 852/8/6 850/8/6 854/8/6
f 853/8/6 852/8/6 854/8/6
f 847/8/6 853/8/6 855/8/6
f 854/8/6 850/8/6 856/8/6
f 847/8/6 855/8/6 857/8/6
f 855/8/6 856/8/6 857/8/6
f 856/8/6 850/8/6 858/8/6
f 857/8/6 856/8/6 858/8/6
f 859/6/6 860/6/6 861/6/6
f 861/6/6 860/6/6 862/6/6
f 863/6/6 864/6/6 865/6/6
f 865/6/6 864/6/6 866/6/6
