# MagicaVoxel @ Ephtracy

# group
g Bench

# material
mtllib Bench.mtl
usemtl palette

# normals
vn -1 0 0
vn 1 0 0
vn 0 0 1
vn 0 0 -1
vn 0 -1 0
vn 0 1 0

# texcoords
vt 0.767578 0.5
vt 0.771484 0.5

# verts
v -9 0 11
v -9 0 10
v -9 0 5
v -9 0 4
v -9 3 11
v -9 3 10
v -9 3 5
v -9 3 4
v -9 4 11
v -9 4 5
v -9 8 5
v -9 8 4
v 8 0 11
v 8 0 10
v 8 0 5
v 8 0 4
v 8 3 11
v 8 3 10
v 8 3 5
v 8 3 4
v -8 0 11
v -8 0 10
v -8 0 5
v -8 0 4
v -8 3 11
v -8 3 10
v -8 3 5
v -8 3 4
v 9 0 11
v 9 0 10
v 9 0 5
v 9 0 4
v 9 3 11
v 9 3 10
v 9 3 5
v 9 3 4
v 9 4 11
v 9 4 5
v 9 8 5
v 9 8 4
v -9 0 11
v -9 3 11
v -9 4 11
v -8 0 11
v -8 3 11
v 8 0 11
v 8 3 11
v 9 0 11
v 9 3 11
v 9 4 11
v -9 0 5
v -9 3 5
v -9 4 5
v -9 8 5
v -8 0 5
v -8 3 5
v 8 0 5
v 8 3 5
v 9 0 5
v 9 3 5
v 9 4 5
v 9 8 5
v -9 0 10
v -9 3 10
v -8 0 10
v -8 3 10
v 8 0 10
v 8 3 10
v 9 0 10
v 9 3 10
v -9 0 4
v -9 3 4
v -9 8 4
v -8 0 4
v -8 3 4
v 8 0 4
v 8 3 4
v 9 0 4
v 9 3 4
v 9 8 4
v -9 0 11
v -8 0 11
v 8 0 11
v 9 0 11
v -9 0 10
v -8 0 10
v 8 0 10
v 9 0 10
v -9 0 5
v -8 0 5
v 8 0 5
v 9 0 5
v -9 0 4
v -8 0 4
v 8 0 4
v 9 0 4
v -8 3 11
v 8 3 11
v -9 3 10
v -8 3 10
v 8 3 10
v 9 3 10
v -9 3 5
v -8 3 5
v 8 3 5
v 9 3 5
v -8 3 4
v 8 3 4
v -9 4 11
v 9 4 11
v -9 4 5
v 9 4 5
v -9 8 5
v 9 8 5
v -9 8 4
v 9 8 4

# faces
f 5/2/1 2/2/1 1/2/1
f 6/2/1 2/2/1 5/2/1
f 7/2/1 4/2/1 3/2/1
f 8/2/1 4/2/1 7/2/1
f 9/1/1 6/1/1 5/1/1
f 9/1/1 7/1/1 6/1/1
f 9/1/1 8/1/1 7/1/1
f 10/1/1 8/1/1 9/1/1
f 11/1/1 8/1/1 10/1/1
f 12/1/1 8/1/1 11/1/1
f 17/2/1 14/2/1 13/2/1
f 18/2/1 14/2/1 17/2/1
f 19/2/1 16/2/1 15/2/1
f 20/2/1 16/2/1 19/2/1
f 21/2/2 22/2/2 25/2/2
f 25/2/2 22/2/2 26/2/2
f 23/2/2 24/2/2 27/2/2
f 27/2/2 24/2/2 28/2/2
f 29/2/2 30/2/2 33/2/2
f 33/2/2 30/2/2 34/2/2
f 31/2/2 32/2/2 35/2/2
f 35/2/2 32/2/2 36/2/2
f 33/1/2 34/1/2 37/1/2
f 34/1/2 35/1/2 37/1/2
f 35/1/2 36/1/2 37/1/2
f 37/1/2 36/1/2 38/1/2
f 38/1/2 36/1/2 39/1/2
f 39/1/2 36/1/2 40/1/2
f 44/2/3 42/2/3 41/2/3
f 45/1/3 43/1/3 42/1/3
f 45/2/3 42/2/3 44/2/3
f 47/1/3 43/1/3 45/1/3
f 48/2/3 47/2/3 46/2/3
f 49/1/3 43/1/3 47/1/3
f 49/2/3 47/2/3 48/2/3
f 50/1/3 43/1/3 49/1/3
f 55/2/3 52/2/3 51/2/3
f 56/2/3 52/2/3 55/2/3
f 59/2/3 58/2/3 57/2/3
f 60/2/3 58/2/3 59/2/3
f 61/1/3 54/1/3 53/1/3
f 62/1/3 54/1/3 61/1/3
f 63/2/4 64/2/4 65/2/4
f 65/2/4 64/2/4 66/2/4
f 67/2/4 68/2/4 69/2/4
f 69/2/4 68/2/4 70/2/4
f 71/2/4 72/2/4 74/2/4
f 72/1/4 73/1/4 75/1/4
f 74/2/4 72/2/4 75/2/4
f 75/1/4 73/1/4 77/1/4
f 76/2/4 77/2/4 78/2/4
f 77/1/4 73/1/4 79/1/4
f 78/2/4 77/2/4 79/2/4
f 79/1/4 73/1/4 80/1/4
f 85/2/5 82/2/5 81/2/5
f 86/2/5 82/2/5 85/2/5
f 87/2/5 84/2/5 83/2/5
f 88/2/5 84/2/5 87/2/5
f 93/2/5 90/2/5 89/2/5
f 94/2/5 90/2/5 93/2/5
f 95/2/5 92/2/5 91/2/5
f 96/2/5 92/2/5 95/2/5
f 100/1/5 98/1/5 97/1/5
f 101/1/5 98/1/5 100/1/5
f 103/1/5 100/1/5 99/1/5
f 103/1/5 102/1/5 101/1/5
f 103/1/5 101/1/5 100/1/5
f 104/1/5 102/1/5 103/1/5
f 105/1/5 102/1/5 104/1/5
f 106/1/5 102/1/5 105/1/5
f 107/1/5 105/1/5 104/1/5
f 108/1/5 105/1/5 107/1/5
f 109/1/6 110/1/6 111/1/6
f 111/1/6 110/1/6 112/1/6
f 113/1/6 114/1/6 115/1/6
f 115/1/6 114/1/6 116/1/6
