# MagicaVoxel @ Ephtracy

# group
g flower

# material
mtllib flower.mtl
usemtl palette

# normals
vn -1 0 0
vn 1 0 0
vn 0 0 1
vn 0 0 -1
vn 0 -1 0
vn 0 1 0

# texcoords
vt 0.146484 0.5
vt 0.158203 0.5
vt 0.888672 0.5

# verts
v -6 4 4
v -6 4 2
v -6 5 4
v -6 5 2
v -5 5 4
v -5 5 2
v -5 6 4
v -5 6 2
v -3 0 4
v -3 0 2
v -3 4 7
v -3 4 5
v -3 4 1
v -3 4 -1
v -3 5 7
v -3 5 6
v -3 5 5
v -3 5 4
v -3 5 2
v -3 5 1
v -3 5 -0
v -3 5 -1
v -3 6 6
v -3 6 4
v -3 6 2
v -3 6 -0
v -3 7 4
v -3 7 2
v 0 4 4
v 0 4 2
v 0 5 4
v 0 5 2
v -4 4 4
v -4 4 2
v -4 5 4
v -4 5 2
v -1 0 4
v -1 0 2
v -1 4 7
v -1 4 5
v -1 4 1
v -1 4 -1
v -1 5 7
v -1 5 6
v -1 5 5
v -1 5 4
v -1 5 2
v -1 5 1
v -1 5 -0
v -1 5 -1
v -1 6 6
v -1 6 4
v -1 6 2
v -1 6 -0
v -1 7 4
v -1 7 2
v 1 5 4
v 1 5 2
v 1 6 4
v 1 6 2
v 2 4 4
v 2 4 2
v 2 5 4
v 2 5 2
v -3 4 7
v -3 5 7
v -1 4 7
v -1 5 7
v -3 5 6
v -3 6 6
v -1 5 6
v -1 6 6
v -6 4 4
v -6 5 4
v -5 5 4
v -5 6 4
v -4 4 4
v -4 5 4
v -3 0 4
v -3 5 4
v -3 6 4
v -3 7 4
v -1 0 4
v -1 5 4
v -1 6 4
v -1 7 4
v 0 4 4
v 0 5 4
v 1 5 4
v 1 6 4
v 2 4 4
v 2 5 4
v -3 4 1
v -3 5 1
v -1 4 1
v -1 5 1
v -3 4 5
v -3 5 5
v -1 4 5
v -1 5 5
v -6 4 2
v -6 5 2
v -5 5 2
v -5 6 2
v -4 4 2
v -4 5 2
v -3 0 2
v -3 5 2
v -3 6 2
v -3 7 2
v -1 0 2
v -1 5 2
v -1 6 2
v -1 7 2
v 0 4 2
v 0 5 2
v 1 5 2
v 1 6 2
v 2 4 2
v 2 5 2
v -3 5 -0
v -3 6 -0
v -1 5 -0
v -1 6 -0
v -3 4 -1
v -3 5 -1
v -1 4 -1
v -1 5 -1
v -3 0 4
v -1 0 4
v -3 0 2
v -1 0 2
v -3 4 7
v -1 4 7
v -3 4 5
v -1 4 5
v -6 4 4
v -4 4 4
v 0 4 4
v 2 4 4
v -6 4 2
v -4 4 2
v 0 4 2
v 2 4 2
v -3 4 1
v -1 4 1
v -3 4 -1
v -1 4 -1
v -3 5 5
v -1 5 5
v -4 5 4
v -3 5 4
v -1 5 4
v 0 5 4
v -4 5 2
v -3 5 2
v -1 5 2
v 0 5 2
v -3 5 1
v -1 5 1
v -3 5 7
v -1 5 7
v -3 5 6
v -1 5 6
v -6 5 4
v -5 5 4
v 1 5 4
v 2 5 4
v -6 5 2
v -5 5 2
v 1 5 2
v 2 5 2
v -3 5 -0
v -1 5 -0
v -3 5 -1
v -1 5 -1
v -3 6 6
v -1 6 6
v -5 6 4
v -3 6 4
v -1 6 4
v 1 6 4
v -5 6 2
v -3 6 2
v -1 6 2
v 1 6 2
v -3 6 -0
v -1 6 -0
v -3 7 4
v -1 7 4
v -3 7 2
v -1 7 2

# faces
f 3/1/1 2/1/1 1/1/1
f 4/1/1 2/1/1 3/1/1
f 7/1/1 6/1/1 5/1/1
f 8/1/1 6/1/1 7/1/1
f 15/1/1 12/1/1 11/1/1
f 16/1/1 12/1/1 15/1/1
f 17/1/1 12/1/1 16/1/1
f 18/3/1 10/3/1 9/3/1
f 19/3/1 10/3/1 18/3/1
f 20/1/1 14/1/1 13/1/1
f 21/1/1 14/1/1 20/1/1
f 22/1/1 14/1/1 21/1/1
f 23/1/1 17/1/1 16/1/1
f 23/1/1 18/1/1 17/1/1
f 24/1/1 18/1/1 23/1/1
f 25/1/1 21/1/1 20/1/1
f 25/1/1 20/1/1 19/1/1
f 26/1/1 21/1/1 25/1/1
f 27/2/1 25/2/1 24/2/1
f 28/2/1 25/2/1 27/2/1
f 31/1/1 30/1/1 29/1/1
f 32/1/1 30/1/1 31/1/1
f 33/1/2 34/1/2 35/1/2
f 35/1/2 34/1/2 36/1/2
f 39/1/2 40/1/2 43/1/2
f 43/1/2 40/1/2 44/1/2
f 44/1/2 40/1/2 45/1/2
f 37/3/2 38/3/2 46/3/2
f 46/3/2 38/3/2 47/3/2
f 41/1/2 42/1/2 48/1/2
f 48/1/2 42/1/2 49/1/2
f 49/1/2 42/1/2 50/1/2
f 44/1/2 45/1/2 51/1/2
f 45/1/2 46/1/2 51/1/2
f 51/1/2 46/1/2 52/1/2
f 48/1/2 49/1/2 53/1/2
f 47/1/2 48/1/2 53/1/2
f 53/1/2 49/1/2 54/1/2
f 52/2/2 53/2/2 55/2/2
f 55/2/2 53/2/2 56/2/2
f 57/1/2 58/1/2 59/1/2
f 59/1/2 58/1/2 60/1/2
f 61/1/2 62/1/2 63/1/2
f 63/1/2 62/1/2 64/1/2
f 67/1/3 66/1/3 65/1/3
f 68/1/3 66/1/3 67/1/3
f 71/1/3 70/1/3 69/1/3
f 72/1/3 70/1/3 71/1/3
f 75/1/3 74/1/3 73/1/3
f 77/1/3 75/1/3 73/1/3
f 77/1/3 76/1/3 75/1/3
f 78/1/3 76/1/3 77/1/3
f 80/1/3 76/1/3 78/1/3
f 81/1/3 76/1/3 80/1/3
f 83/3/3 80/3/3 79/3/3
f 84/3/3 80/3/3 83/3/3
f 85/2/3 82/2/3 81/2/3
f 86/2/3 82/2/3 85/2/3
f 88/1/3 85/1/3 84/1/3
f 89/1/3 85/1/3 88/1/3
f 89/1/3 88/1/3 87/1/3
f 90/1/3 85/1/3 89/1/3
f 91/1/3 89/1/3 87/1/3
f 92/1/3 89/1/3 91/1/3
f 95/1/3 94/1/3 93/1/3
f 96/1/3 94/1/3 95/1/3
f 97/1/4 98/1/4 99/1/4
f 99/1/4 98/1/4 100/1/4
f 101/1/4 102/1/4 103/1/4
f 101/1/4 103/1/4 105/1/4
f 103/1/4 104/1/4 105/1/4
f 105/1/4 104/1/4 106/1/4
f 106/1/4 104/1/4 108/1/4
f 108/1/4 104/1/4 109/1/4
f 107/3/4 108/3/4 111/3/4
f 111/3/4 108/3/4 112/3/4
f 109/2/4 110/2/4 113/2/4
f 113/2/4 110/2/4 114/2/4
f 112/1/4 113/1/4 116/1/4
f 116/1/4 113/1/4 117/1/4
f 115/1/4 116/1/4 117/1/4
f 117/1/4 113/1/4 118/1/4
f 115/1/4 117/1/4 119/1/4
f 119/1/4 117/1/4 120/1/4
f 121/1/4 122/1/4 123/1/4
f 123/1/4 122/1/4 124/1/4
f 125/1/4 126/1/4 127/1/4
f 127/1/4 126/1/4 128/1/4
f 131/3/5 130/3/5 129/3/5
f 132/3/5 130/3/5 131/3/5
f 135/1/5 134/1/5 133/1/5
f 136/1/5 134/1/5 135/1/5
f 141/1/5 138/1/5 137/1/5
f 142/1/5 138/1/5 141/1/5
f 143/1/5 140/1/5 139/1/5
f 144/1/5 140/1/5 143/1/5
f 147/1/5 146/1/5 145/1/5
f 148/1/5 146/1/5 147/1/5
f 152/1/5 150/1/5 149/1/5
f 153/1/5 150/1/5 152/1/5
f 155/1/5 152/1/5 151/1/5
f 156/1/5 152/1/5 155/1/5
f 157/1/5 154/1/5 153/1/5
f 158/1/5 154/1/5 157/1/5
f 159/1/5 157/1/5 156/1/5
f 160/1/5 157/1/5 159/1/5
f 161/1/6 162/1/6 163/1/6
f 163/1/6 162/1/6 164/1/6
f 165/1/6 166/1/6 169/1/6
f 169/1/6 166/1/6 170/1/6
f 167/1/6 168/1/6 171/1/6
f 171/1/6 168/1/6 172/1/6
f 173/1/6 174/1/6 175/1/6
f 175/1/6 174/1/6 176/1/6
f 177/1/6 178/1/6 180/1/6
f 180/1/6 178/1/6 181/1/6
f 179/1/6 180/1/6 183/1/6
f 183/1/6 180/1/6 184/1/6
f 181/1/6 182/1/6 185/1/6
f 185/1/6 182/1/6 186/1/6
f 184/1/6 185/1/6 187/1/6
f 187/1/6 185/1/6 188/1/6
f 189/2/6 190/2/6 191/2/6
f 191/2/6 190/2/6 192/2/6
